%YAML 1.1
%TAG !u! tag:unity3d.com,2011:
--- !u!114 &11400000
MonoBehaviour:
  m_ObjectHideFlags: 0
  m_PrefabParentObject: {fileID: 0}
  m_PrefabInternal: {fileID: 0}
  m_GameObject: {fileID: 0}
  m_Enabled: 1
  m_EditorHideFlags: 0
  m_Script: {fileID: 11500000, guid: f1b3b4b945939a54ea0b23d3396115fb, type: 3}
  m_Name: npc_Yj_SkeletonData
  m_EditorClassIdentifier: 
  atlasAssets:
  - {fileID: 11400000, guid: 5aeadcdb78caef042a24c6cb98d25ccf, type: 2}
  skeletonJSON: {fileID: 4900000, guid: d94ed7669f645244c9e38470a3bac6cd, type: 3}
  scale: .00999999978
  fromAnimation: []
  toAnimation: []
  duration: []
  defaultMix: .200000003
  controller: {fileID: 9100000, guid: a9b1fa34442f9214cbcad2fe25572316, type: 2}
