{
"skeleton": { "hash": "u+Y4aPbSILS+xfvs9uB98PBCftQ", "spine": "3.0.10", "width": 1152, "height": 648, "images": "" },
"bones": [
	{ "name": "root" },
	{ "name": "bone2", "parent": "root", "x": -4, "y": -6.99, "scaleX": -0.63 },
	{ "name": "bone", "parent": "root", "y": 64, "scaleX": -1 }
],
"slots": [
	{ "name": "001", "bone": "bone2", "color": "ffffffc7", "attachment": "001" },
	{ "name": "attack/attack.001", "bone": "bone", "attachment": "prepare/prepare.022" }
],
"skins": {
	"default": {
		"001": {
			"001": { "width": 232, "height": 134 }
		},
		"attack/attack.001": {
			"attack/attack.001": { "width": 1152, "height": 648 },
			"attack/attack.003": { "width": 1152, "height": 648 },
			"attack/attack.005": { "width": 1152, "height": 648 },
			"attack/attack.007": { "width": 1152, "height": 648 },
			"attack/attack.010": { "width": 1152, "height": 648 },
			"attack/attack.013": { "width": 1152, "height": 648 },
			"attack/attack.016": { "width": 1152, "height": 648 },
			"attack/attack.019": { "width": 1152, "height": 648 },
			"attack/attack.022": { "width": 1152, "height": 648 },
			"attack/attack.025": { "width": 1152, "height": 648 },
			"attack/attack.028": { "width": 1152, "height": 648 },
			"attack/attack.030": { "width": 1152, "height": 648 },
			"attack/attack.032": { "width": 1152, "height": 648 },
			"attack/attack.034": { "width": 1152, "height": 648 },
			"attack/attack.035": { "width": 1152, "height": 648 },
			"dead/dead.001": { "width": 1152, "height": 648 },
			"dead/dead.003": { "width": 1152, "height": 648 },
			"dead/dead.005": { "width": 1152, "height": 648 },
			"dead/dead.008": { "width": 1152, "height": 648 },
			"dead/dead.011": { "width": 1152, "height": 648 },
			"dead/dead.014": { "width": 1152, "height": 648 },
			"dead/dead.017": { "width": 1152, "height": 648 },
			"dead/dead.019": { "width": 1152, "height": 648 },
			"dead/dead.021": { "width": 1152, "height": 648 },
			"dead/dead.023": { "width": 1152, "height": 648 },
			"dead/dead.024": { "width": 1152, "height": 648 },
			"idel/idel_-45/idel_-45.001": { "width": 1152, "height": 648 },
			"idel/idel_-45/idel_-45.004": { "width": 1152, "height": 648 },
			"idel/idel_-45/idel_-45.007": { "width": 1152, "height": 648 },
			"idel/idel_-45/idel_-45.010": { "width": 1152, "height": 648 },
			"idel/idel_-45/idel_-45.013": { "width": 1152, "height": 648 },
			"idel/idel_-45/idel_-45.016": { "width": 1152, "height": 648 },
			"idel/idel_-45/idel_-45.019": { "width": 1152, "height": 648 },
			"idel/idel_-45/idel_-45.022": { "width": 1152, "height": 648 },
			"idel/idel_-45/idel_-45.025": { "width": 1152, "height": 648 },
			"idel/idel_-45/idel_-45.028": { "width": 1152, "height": 648 },
			"idel/idel_-45/idel_-45.031": { "width": 1152, "height": 648 },
			"prepare/prepare.001": { "width": 1152, "height": 648 },
			"prepare/prepare.004": { "width": 1152, "height": 648 },
			"prepare/prepare.007": { "width": 1152, "height": 648 },
			"prepare/prepare.010": { "width": 1152, "height": 648 },
			"prepare/prepare.013": { "width": 1152, "height": 648 },
			"prepare/prepare.016": { "width": 1152, "height": 648 },
			"prepare/prepare.019": { "width": 1152, "height": 648 },
			"prepare/prepare.022": { "width": 1152, "height": 648 }
		}
	}
},
"animations": {
	"Attack": {
		"slots": {
			"attack/attack.001": {
				"attachment": [
					{ "time": 0, "name": "attack/attack.001" },
					{ "time": 0.1, "name": "attack/attack.003" },
					{ "time": 0.2, "name": "attack/attack.005" },
					{ "time": 0.3, "name": "attack/attack.007" },
					{ "time": 0.4, "name": "attack/attack.010" },
					{ "time": 0.5, "name": "attack/attack.013" },
					{ "time": 0.6, "name": "attack/attack.016" },
					{ "time": 0.7, "name": "attack/attack.019" },
					{ "time": 0.8, "name": "attack/attack.022" },
					{ "time": 0.9, "name": "attack/attack.025" },
					{ "time": 1, "name": "attack/attack.028" },
					{ "time": 1.1, "name": "attack/attack.030" },
					{ "time": 1.2, "name": "attack/attack.032" },
					{ "time": 1.3, "name": "attack/attack.034" },
					{ "time": 1.4, "name": "attack/attack.035" }
				]
			}
		},
		"bones": {
			"bone2": {
				"translate": [
					{ "time": 0, "x": 0, "y": 0, "curve": "stepped" },
					{ "time": 0.0915, "x": 0, "y": 0 },
					{ "time": 0.1, "x": 2, "y": 2, "curve": "stepped" },
					{ "time": 0.189, "x": 2, "y": 2 },
					{ "time": 0.2, "x": 5, "y": 2, "curve": "stepped" },
					{ "time": 0.2965, "x": 5, "y": 2 },
					{ "time": 0.3, "x": 8, "y": 2, "curve": "stepped" },
					{ "time": 0.394, "x": 8, "y": 2 },
					{ "time": 0.4, "x": 6.99, "y": 2, "curve": "stepped" },
					{ "time": 0.489, "x": 6.99, "y": 2 },
					{ "time": 0.5, "x": 11.99, "y": 2, "curve": "stepped" },
					{ "time": 0.5915, "x": 11.99, "y": 2 },
					{ "time": 0.6, "x": 32.99, "y": 2, "curve": "stepped" },
					{ "time": 0.689, "x": 32.99, "y": 2 },
					{ "time": 0.7, "x": 31.99, "y": -1, "curve": "stepped" },
					{ "time": 0.794, "x": 31.99, "y": -1 },
					{ "time": 0.8, "x": 9.99, "y": -1, "curve": "stepped" },
					{ "time": 0.8915, "x": 9.99, "y": -1 },
					{ "time": 0.9, "x": -31.99, "y": -1, "curve": "stepped" },
					{ "time": 1.0865, "x": -31.99, "y": -1 },
					{ "time": 1.1, "x": -14, "y": -1, "curve": "stepped" },
					{ "time": 1.1865, "x": -14, "y": -1 },
					{ "time": 1.2, "x": -5, "y": -1, "curve": "stepped" },
					{ "time": 1.2915, "x": -5, "y": -1 },
					{ "time": 1.3, "x": 4.99, "y": -1, "curve": "stepped" },
					{ "time": 1.389, "x": 4.99, "y": -1 },
					{ "time": 1.4, "x": 0, "y": 0 }
				],
				"scale": [
					{ "time": 0, "x": 1, "y": 1, "curve": "stepped" },
					{ "time": 0.0915, "x": 1, "y": 1 },
					{ "time": 0.1, "x": 1, "y": 1.129, "curve": "stepped" },
					{ "time": 0.189, "x": 1, "y": 1.129, "curve": "stepped" },
					{ "time": 0.2, "x": 1, "y": 1.129, "curve": "stepped" },
					{ "time": 0.2965, "x": 1, "y": 1.129, "curve": "stepped" },
					{ "time": 0.3, "x": 1, "y": 1.129, "curve": "stepped" },
					{ "time": 0.394, "x": 1, "y": 1.129, "curve": "stepped" },
					{ "time": 0.4, "x": 1, "y": 1.129, "curve": "stepped" },
					{ "time": 0.489, "x": 1, "y": 1.129 },
					{ "time": 0.5, "x": 1.119, "y": 1.129, "curve": "stepped" },
					{ "time": 0.5915, "x": 1.119, "y": 1.129 },
					{ "time": 0.6, "x": 1.232, "y": 1.129, "curve": "stepped" },
					{ "time": 0.689, "x": 1.232, "y": 1.129, "curve": "stepped" },
					{ "time": 0.7, "x": 1.232, "y": 1.129, "curve": "stepped" },
					{ "time": 0.794, "x": 1.232, "y": 1.129, "curve": "stepped" },
					{ "time": 0.8, "x": 1.232, "y": 1.129, "curve": "stepped" },
					{ "time": 0.8915, "x": 1.232, "y": 1.129 },
					{ "time": 0.9, "x": 1.33, "y": 1.129, "curve": "stepped" },
					{ "time": 1.0865, "x": 1.33, "y": 1.129 },
					{ "time": 1.1, "x": 1.197, "y": 1.129, "curve": "stepped" },
					{ "time": 1.1865, "x": 1.197, "y": 1.129, "curve": "stepped" },
					{ "time": 1.2, "x": 1.197, "y": 1.129, "curve": "stepped" },
					{ "time": 1.2915, "x": 1.197, "y": 1.129 },
					{ "time": 1.3, "x": 1.125, "y": 1.129, "curve": "stepped" },
					{ "time": 1.389, "x": 1.125, "y": 1.129 },
					{ "time": 1.4, "x": 1, "y": 1 }
				]
			}
		}
	},
	"Dead": {
		"slots": {
			"attack/attack.001": {
				"attachment": [
					{ "time": 0, "name": "dead/dead.001" },
					{ "time": 0.1, "name": "dead/dead.003" },
					{ "time": 0.2, "name": "dead/dead.005" },
					{ "time": 0.3, "name": "dead/dead.008" },
					{ "time": 0.4, "name": "dead/dead.011" },
					{ "time": 0.5, "name": "dead/dead.014" },
					{ "time": 0.6, "name": "dead/dead.017" },
					{ "time": 0.7, "name": "dead/dead.019" },
					{ "time": 0.8, "name": "dead/dead.021" },
					{ "time": 0.9, "name": "dead/dead.023" },
					{ "time": 1, "name": "dead/dead.024" }
				]
			}
		},
		"bones": {
			"bone2": {
				"translate": [
					{ "time": 0, "x": 0, "y": 0, "curve": "stepped" },
					{ "time": 0.0915, "x": 0, "y": 0 },
					{ "time": 0.1, "x": 10, "y": 0, "curve": "stepped" },
					{ "time": 0.189, "x": 10, "y": 0 },
					{ "time": 0.2, "x": 13, "y": 0, "curve": "stepped" },
					{ "time": 0.2965, "x": 13, "y": 0 },
					{ "time": 0.3, "x": 7, "y": -2, "curve": "stepped" },
					{ "time": 0.394, "x": 7, "y": -2 },
					{ "time": 0.4, "x": -11, "y": -5, "curve": "stepped" },
					{ "time": 0.4915, "x": -11, "y": -5 },
					{ "time": 0.5, "x": -28.99, "y": -8, "curve": "stepped" },
					{ "time": 0.589, "x": -28.99, "y": -8 },
					{ "time": 0.6, "x": -48, "y": -9, "curve": "stepped" },
					{ "time": 1, "x": -48, "y": -9 }
				],
				"scale": [
					{ "time": 0, "x": 1, "y": 1, "curve": "stepped" },
					{ "time": 0.0915, "x": 1, "y": 1, "curve": "stepped" },
					{ "time": 0.1, "x": 1, "y": 1, "curve": "stepped" },
					{ "time": 0.189, "x": 1, "y": 1, "curve": "stepped" },
					{ "time": 0.2, "x": 1, "y": 1, "curve": "stepped" },
					{ "time": 0.2965, "x": 1, "y": 1, "curve": "stepped" },
					{ "time": 0.3, "x": 1, "y": 1, "curve": "stepped" },
					{ "time": 0.394, "x": 1, "y": 1 },
					{ "time": 0.4, "x": 1.17, "y": 1, "curve": "stepped" },
					{ "time": 0.4915, "x": 1.17, "y": 1 },
					{ "time": 0.5, "x": 1.681, "y": 1, "curve": "stepped" },
					{ "time": 0.589, "x": 1.681, "y": 1 },
					{ "time": 0.6, "x": 1.905, "y": 1, "curve": "stepped" },
					{ "time": 1, "x": 1.905, "y": 1 }
				]
			}
		}
	},
	"Idel_-45": {
		"slots": {
			"attack/attack.001": {
				"attachment": [
					{ "time": 0, "name": "idel/idel_-45/idel_-45.001" },
					{ "time": 0.1, "name": "idel/idel_-45/idel_-45.004" },
					{ "time": 0.2, "name": "idel/idel_-45/idel_-45.007" },
					{ "time": 0.3, "name": "idel/idel_-45/idel_-45.010" },
					{ "time": 0.4, "name": "idel/idel_-45/idel_-45.013" },
					{ "time": 0.5, "name": "idel/idel_-45/idel_-45.016" },
					{ "time": 0.6, "name": "idel/idel_-45/idel_-45.019" },
					{ "time": 0.7, "name": "idel/idel_-45/idel_-45.022" },
					{ "time": 0.8, "name": "idel/idel_-45/idel_-45.025" },
					{ "time": 0.9, "name": "idel/idel_-45/idel_-45.028" },
					{ "time": 1, "name": "idel/idel_-45/idel_-45.031" }
				]
			}
		},
		"bones": {
			"bone2": {
				"translate": [
					{ "time": 0, "x": 0, "y": 0, "curve": "stepped" },
					{ "time": 1, "x": 0, "y": 0 }
				],
				"scale": [
					{ "time": 0, "x": 1, "y": 1 },
					{ "time": 0.5, "x": 1.069, "y": 1 },
					{ "time": 1, "x": 1, "y": 1 }
				]
			}
		}
	},
	"Prepare": {
		"slots": {
			"attack/attack.001": {
				"attachment": [
					{ "time": 0, "name": "prepare/prepare.001" },
					{ "time": 0.1, "name": "prepare/prepare.004" },
					{ "time": 0.2, "name": "prepare/prepare.007" },
					{ "time": 0.3, "name": "prepare/prepare.010" },
					{ "time": 0.4, "name": "prepare/prepare.013" },
					{ "time": 0.5, "name": "prepare/prepare.016" },
					{ "time": 0.6, "name": "prepare/prepare.019" },
					{ "time": 0.7, "name": "prepare/prepare.022" }
				]
			}
		},
		"bones": {
			"bone2": {
				"translate": [
					{ "time": 0, "x": 0, "y": 0, "curve": "stepped" },
					{ "time": 0.3666, "x": 0, "y": 0, "curve": "stepped" },
					{ "time": 0.7, "x": 0, "y": 0 }
				],
				"scale": [
					{ "time": 0, "x": 1, "y": 1 },
					{ "time": 0.3666, "x": 1.16, "y": 1 },
					{ "time": 0.7, "x": 1, "y": 1 }
				]
			}
		}
	}
}
}