{"frames": {

"[11-15]UI-s2-sc-shoumaizhong.png":
{
	"frame": {"x":2,"y":2,"w":68,"h":24},
	"rotated": false,
	"trimmed": false,
	"spriteSourceSize": {"x":0,"y":0,"w":68,"h":24},
	"sourceSize": {"w":68,"h":24}
},
"[11-15]UI-s2-sc-yiguoqi.png":
{
	"frame": {"x":2,"y":28,"w":68,"h":24},
	"rotated": false,
	"trimmed": false,
	"spriteSourceSize": {"x":0,"y":0,"w":68,"h":24},
	"sourceSize": {"w":68,"h":24}
},
"[11-15]UI-s2-sc-zhe.png":
{
	"frame": {"x":2,"y":80,"w":66,"h":24},
	"rotated": false,
	"trimmed": false,
	"spriteSourceSize": {"x":0,"y":0,"w":66,"h":24},
	"sourceSize": {"w":66,"h":24}
},
"[11-15]UI-s2-sc-zhekouzhong.png":
{
	"frame": {"x":2,"y":54,"w":68,"h":24},
	"rotated": false,
	"trimmed": false,
	"spriteSourceSize": {"x":0,"y":0,"w":68,"h":24},
	"sourceSize": {"w":68,"h":24}
}},
"meta": {
	"app": "http://www.codeandweb.com/texturepacker",
	"version": "1.0",
	"image": "Atlas_Shop.png",
	"format": "RGBA8888",
	"size": {"w":128,"h":128},
	"scale": "1",
	"smartupdate": "$TexturePacker:SmartUpdate:cf03e96c747d656d6df106ddb3acb3fc:e2f8a38178611dbdb65d6b690a9a3567:5b88c9c0f459d2bf05eac79cc1d5050a$"
}
}
