%YAML 1.1
%TAG !u! tag:unity3d.com,2011:
--- !u!1 &164822
GameObject:
  m_ObjectHideFlags: 0
  m_PrefabParentObject: {fileID: 0}
  m_PrefabInternal: {fileID: 100100000}
  serializedVersion: 4
  m_Component:
  - 4: {fileID: 472902}
  - 114: {fileID: 11403702}
  m_Layer: 0
  m_Name: Altas_Icon_Pet
  m_TagString: Untagged
  m_Icon: {fileID: 0}
  m_NavMeshLayer: 0
  m_StaticEditorFlags: 0
  m_IsActive: 1
--- !u!4 &472902
Transform:
  m_ObjectHideFlags: 1
  m_PrefabParentObject: {fileID: 0}
  m_PrefabInternal: {fileID: 100100000}
  m_GameObject: {fileID: 164822}
  m_LocalRotation: {x: 0, y: 0, z: 0, w: 1}
  m_LocalPosition: {x: 0, y: 0, z: 0}
  m_LocalScale: {x: 1, y: 1, z: 1}
  m_Children: []
  m_Father: {fileID: 0}
  m_RootOrder: 0
--- !u!114 &11403702
MonoBehaviour:
  m_ObjectHideFlags: 1
  m_PrefabParentObject: {fileID: 0}
  m_PrefabInternal: {fileID: 100100000}
  m_GameObject: {fileID: 164822}
  m_Enabled: 1
  m_EditorHideFlags: 0
  m_Script: {fileID: 11500000, guid: 4d0c51bb0b6e93049af5e88f93826e3b, type: 3}
  m_Name: 
  m_EditorClassIdentifier: 
  material: {fileID: 2100000, guid: b9efc2ac47322354985bf1cdea15d181, type: 2}
  mSprites:
  - name: Pet_001
    x: 2
    y: 2
    width: 93
    height: 94
    borderLeft: 0
    borderRight: 0
    borderTop: 0
    borderBottom: 0
    paddingLeft: 0
    paddingRight: 0
    paddingTop: 0
    paddingBottom: 0
  - name: Pet_002
    x: 2
    y: 98
    width: 93
    height: 94
    borderLeft: 0
    borderRight: 0
    borderTop: 0
    borderBottom: 0
    paddingLeft: 0
    paddingRight: 0
    paddingTop: 0
    paddingBottom: 0
  - name: Pet_003
    x: 2
    y: 194
    width: 93
    height: 94
    borderLeft: 0
    borderRight: 0
    borderTop: 0
    borderBottom: 0
    paddingLeft: 0
    paddingRight: 0
    paddingTop: 0
    paddingBottom: 0
  - name: Pet_004
    x: 2
    y: 290
    width: 93
    height: 94
    borderLeft: 0
    borderRight: 0
    borderTop: 0
    borderBottom: 0
    paddingLeft: 0
    paddingRight: 0
    paddingTop: 0
    paddingBottom: 0
  - name: Pet_005
    x: 2
    y: 386
    width: 93
    height: 94
    borderLeft: 0
    borderRight: 0
    borderTop: 0
    borderBottom: 0
    paddingLeft: 0
    paddingRight: 0
    paddingTop: 0
    paddingBottom: 0
  - name: Pet_006
    x: 97
    y: 2
    width: 93
    height: 94
    borderLeft: 0
    borderRight: 0
    borderTop: 0
    borderBottom: 0
    paddingLeft: 0
    paddingRight: 0
    paddingTop: 0
    paddingBottom: 0
  - name: Pet_007
    x: 192
    y: 2
    width: 93
    height: 94
    borderLeft: 0
    borderRight: 0
    borderTop: 0
    borderBottom: 0
    paddingLeft: 0
    paddingRight: 0
    paddingTop: 0
    paddingBottom: 0
  - name: Pet_008
    x: 287
    y: 2
    width: 93
    height: 94
    borderLeft: 0
    borderRight: 0
    borderTop: 0
    borderBottom: 0
    paddingLeft: 0
    paddingRight: 0
    paddingTop: 0
    paddingBottom: 0
  - name: Pet_009
    x: 382
    y: 2
    width: 93
    height: 94
    borderLeft: 0
    borderRight: 0
    borderTop: 0
    borderBottom: 0
    paddingLeft: 0
    paddingRight: 0
    paddingTop: 0
    paddingBottom: 0
  - name: Pet_010
    x: 97
    y: 98
    width: 93
    height: 94
    borderLeft: 0
    borderRight: 0
    borderTop: 0
    borderBottom: 0
    paddingLeft: 0
    paddingRight: 0
    paddingTop: 0
    paddingBottom: 0
  - name: Pet_011
    x: 97
    y: 194
    width: 93
    height: 94
    borderLeft: 0
    borderRight: 0
    borderTop: 0
    borderBottom: 0
    paddingLeft: 0
    paddingRight: 0
    paddingTop: 0
    paddingBottom: 0
  - name: Pet_012
    x: 97
    y: 290
    width: 93
    height: 94
    borderLeft: 0
    borderRight: 0
    borderTop: 0
    borderBottom: 0
    paddingLeft: 0
    paddingRight: 0
    paddingTop: 0
    paddingBottom: 0
  - name: Pet_013
    x: 97
    y: 386
    width: 93
    height: 94
    borderLeft: 0
    borderRight: 0
    borderTop: 0
    borderBottom: 0
    paddingLeft: 0
    paddingRight: 0
    paddingTop: 0
    paddingBottom: 0
  - name: Pet_014
    x: 192
    y: 98
    width: 93
    height: 94
    borderLeft: 0
    borderRight: 0
    borderTop: 0
    borderBottom: 0
    paddingLeft: 0
    paddingRight: 0
    paddingTop: 0
    paddingBottom: 0
  - name: Pet_015
    x: 287
    y: 98
    width: 93
    height: 94
    borderLeft: 0
    borderRight: 0
    borderTop: 0
    borderBottom: 0
    paddingLeft: 0
    paddingRight: 0
    paddingTop: 0
    paddingBottom: 0
  - name: Pet_016
    x: 382
    y: 98
    width: 93
    height: 94
    borderLeft: 0
    borderRight: 0
    borderTop: 0
    borderBottom: 0
    paddingLeft: 0
    paddingRight: 0
    paddingTop: 0
    paddingBottom: 0
  - name: Pet_017
    x: 192
    y: 194
    width: 93
    height: 94
    borderLeft: 0
    borderRight: 0
    borderTop: 0
    borderBottom: 0
    paddingLeft: 0
    paddingRight: 0
    paddingTop: 0
    paddingBottom: 0
  - name: Pet_018
    x: 192
    y: 290
    width: 93
    height: 94
    borderLeft: 0
    borderRight: 0
    borderTop: 0
    borderBottom: 0
    paddingLeft: 0
    paddingRight: 0
    paddingTop: 0
    paddingBottom: 0
  - name: Pet_099
    x: 192
    y: 386
    width: 93
    height: 94
    borderLeft: 0
    borderRight: 0
    borderTop: 0
    borderBottom: 0
    paddingLeft: 0
    paddingRight: 0
    paddingTop: 0
    paddingBottom: 0
  mPixelSize: 1
  mReplacement: {fileID: 0}
  mCoordinates: 0
  sprites: []
--- !u!1001 &100100000
Prefab:
  m_ObjectHideFlags: 1
  serializedVersion: 2
  m_Modification:
    m_TransformParent: {fileID: 0}
    m_Modifications:
    - target: {fileID: 0}
      propertyPath: mSprites.Array.size
      value: 19
      objectReference: {fileID: 0}
    - target: {fileID: 0}
      propertyPath: material
      value: 
      objectReference: {fileID: 2100000, guid: b9efc2ac47322354985bf1cdea15d181, type: 2}
    - target: {fileID: 0}
      propertyPath: mSprites.Array.data[2].x
      value: 2
      objectReference: {fileID: 0}
    - target: {fileID: 0}
      propertyPath: mSprites.Array.data[2].y
      value: 194
      objectReference: {fileID: 0}
    - target: {fileID: 0}
      propertyPath: mSprites.Array.data[3].x
      value: 2
      objectReference: {fileID: 0}
    - target: {fileID: 0}
      propertyPath: mSprites.Array.data[3].y
      value: 290
      objectReference: {fileID: 0}
    - target: {fileID: 0}
      propertyPath: mSprites.Array.data[4].x
      value: 2
      objectReference: {fileID: 0}
    - target: {fileID: 0}
      propertyPath: mSprites.Array.data[4].y
      value: 386
      objectReference: {fileID: 0}
    - target: {fileID: 0}
      propertyPath: mSprites.Array.data[7].x
      value: 287
      objectReference: {fileID: 0}
    - target: {fileID: 0}
      propertyPath: mSprites.Array.data[7].y
      value: 2
      objectReference: {fileID: 0}
    - target: {fileID: 0}
      propertyPath: mSprites.Array.data[8].x
      value: 382
      objectReference: {fileID: 0}
    - target: {fileID: 0}
      propertyPath: mSprites.Array.data[8].y
      value: 2
      objectReference: {fileID: 0}
    - target: {fileID: 0}
      propertyPath: mSprites.Array.data[9].x
      value: 97
      objectReference: {fileID: 0}
    - target: {fileID: 0}
      propertyPath: mSprites.Array.data[9].y
      value: 98
      objectReference: {fileID: 0}
    - target: {fileID: 0}
      propertyPath: mSprites.Array.data[10].x
      value: 97
      objectReference: {fileID: 0}
    - target: {fileID: 0}
      propertyPath: mSprites.Array.data[11].x
      value: 97
      objectReference: {fileID: 0}
    - target: {fileID: 0}
      propertyPath: mSprites.Array.data[12].x
      value: 97
      objectReference: {fileID: 0}
    - target: {fileID: 0}
      propertyPath: mSprites.Array.data[12].y
      value: 386
      objectReference: {fileID: 0}
    - target: {fileID: 0}
      propertyPath: mSprites.Array.data[13].x
      value: 192
      objectReference: {fileID: 0}
    - target: {fileID: 0}
      propertyPath: mSprites.Array.data[13].y
      value: 98
      objectReference: {fileID: 0}
    - target: {fileID: 0}
      propertyPath: mSprites.Array.data[14].x
      value: 287
      objectReference: {fileID: 0}
    - target: {fileID: 0}
      propertyPath: mSprites.Array.data[14].y
      value: 98
      objectReference: {fileID: 0}
    - target: {fileID: 0}
      propertyPath: mSprites.Array.data[15].x
      value: 382
      objectReference: {fileID: 0}
    - target: {fileID: 0}
      propertyPath: mSprites.Array.data[15].y
      value: 98
      objectReference: {fileID: 0}
    - target: {fileID: 0}
      propertyPath: mSprites.Array.data[16].x
      value: 192
      objectReference: {fileID: 0}
    - target: {fileID: 0}
      propertyPath: mSprites.Array.data[16].y
      value: 194
      objectReference: {fileID: 0}
    - target: {fileID: 0}
      propertyPath: mSprites.Array.data[17].x
      value: 192
      objectReference: {fileID: 0}
    - target: {fileID: 0}
      propertyPath: mSprites.Array.data[18].x
      value: 192
      objectReference: {fileID: 0}
    - target: {fileID: 0}
      propertyPath: mSprites.Array.data[18].y
      value: 386
      objectReference: {fileID: 0}
    - target: {fileID: 0}
      propertyPath: mSprites.Array.data[0].width
      value: 93
      objectReference: {fileID: 0}
    - target: {fileID: 0}
      propertyPath: mSprites.Array.data[0].height
      value: 94
      objectReference: {fileID: 0}
    - target: {fileID: 0}
      propertyPath: mSprites.Array.data[0].paddingLeft
      value: 0
      objectReference: {fileID: 0}
    - target: {fileID: 0}
      propertyPath: mSprites.Array.data[0].paddingRight
      value: 0
      objectReference: {fileID: 0}
    - target: {fileID: 0}
      propertyPath: mSprites.Array.data[0].paddingTop
      value: 0
      objectReference: {fileID: 0}
    - target: {fileID: 0}
      propertyPath: mSprites.Array.data[0].paddingBottom
      value: 0
      objectReference: {fileID: 0}
    - target: {fileID: 0}
      propertyPath: mSprites.Array.data[1].y
      value: 98
      objectReference: {fileID: 0}
    - target: {fileID: 0}
      propertyPath: mSprites.Array.data[1].width
      value: 93
      objectReference: {fileID: 0}
    - target: {fileID: 0}
      propertyPath: mSprites.Array.data[1].height
      value: 94
      objectReference: {fileID: 0}
    - target: {fileID: 0}
      propertyPath: mSprites.Array.data[1].paddingLeft
      value: 0
      objectReference: {fileID: 0}
    - target: {fileID: 0}
      propertyPath: mSprites.Array.data[1].paddingRight
      value: 0
      objectReference: {fileID: 0}
    - target: {fileID: 0}
      propertyPath: mSprites.Array.data[1].paddingTop
      value: 0
      objectReference: {fileID: 0}
    - target: {fileID: 0}
      propertyPath: mSprites.Array.data[1].paddingBottom
      value: 0
      objectReference: {fileID: 0}
    - target: {fileID: 0}
      propertyPath: mSprites.Array.data[2].width
      value: 93
      objectReference: {fileID: 0}
    - target: {fileID: 0}
      propertyPath: mSprites.Array.data[2].height
      value: 94
      objectReference: {fileID: 0}
    - target: {fileID: 0}
      propertyPath: mSprites.Array.data[2].paddingLeft
      value: 0
      objectReference: {fileID: 0}
    - target: {fileID: 0}
      propertyPath: mSprites.Array.data[2].paddingRight
      value: 0
      objectReference: {fileID: 0}
    - target: {fileID: 0}
      propertyPath: mSprites.Array.data[2].paddingTop
      value: 0
      objectReference: {fileID: 0}
    - target: {fileID: 0}
      propertyPath: mSprites.Array.data[2].paddingBottom
      value: 0
      objectReference: {fileID: 0}
    - target: {fileID: 0}
      propertyPath: mSprites.Array.data[3].width
      value: 93
      objectReference: {fileID: 0}
    - target: {fileID: 0}
      propertyPath: mSprites.Array.data[3].height
      value: 94
      objectReference: {fileID: 0}
    - target: {fileID: 0}
      propertyPath: mSprites.Array.data[3].paddingLeft
      value: 0
      objectReference: {fileID: 0}
    - target: {fileID: 0}
      propertyPath: mSprites.Array.data[3].paddingRight
      value: 0
      objectReference: {fileID: 0}
    - target: {fileID: 0}
      propertyPath: mSprites.Array.data[3].paddingTop
      value: 0
      objectReference: {fileID: 0}
    - target: {fileID: 0}
      propertyPath: mSprites.Array.data[3].paddingBottom
      value: 0
      objectReference: {fileID: 0}
    - target: {fileID: 0}
      propertyPath: mSprites.Array.data[4].width
      value: 93
      objectReference: {fileID: 0}
    - target: {fileID: 0}
      propertyPath: mSprites.Array.data[4].height
      value: 94
      objectReference: {fileID: 0}
    - target: {fileID: 0}
      propertyPath: mSprites.Array.data[4].paddingLeft
      value: 0
      objectReference: {fileID: 0}
    - target: {fileID: 0}
      propertyPath: mSprites.Array.data[4].paddingRight
      value: 0
      objectReference: {fileID: 0}
    - target: {fileID: 0}
      propertyPath: mSprites.Array.data[4].paddingTop
      value: 0
      objectReference: {fileID: 0}
    - target: {fileID: 0}
      propertyPath: mSprites.Array.data[4].paddingBottom
      value: 0
      objectReference: {fileID: 0}
    - target: {fileID: 0}
      propertyPath: mSprites.Array.data[5].x
      value: 97
      objectReference: {fileID: 0}
    - target: {fileID: 0}
      propertyPath: mSprites.Array.data[5].y
      value: 2
      objectReference: {fileID: 0}
    - target: {fileID: 0}
      propertyPath: mSprites.Array.data[5].width
      value: 93
      objectReference: {fileID: 0}
    - target: {fileID: 0}
      propertyPath: mSprites.Array.data[5].height
      value: 94
      objectReference: {fileID: 0}
    - target: {fileID: 0}
      propertyPath: mSprites.Array.data[5].paddingLeft
      value: 0
      objectReference: {fileID: 0}
    - target: {fileID: 0}
      propertyPath: mSprites.Array.data[5].paddingRight
      value: 0
      objectReference: {fileID: 0}
    - target: {fileID: 0}
      propertyPath: mSprites.Array.data[5].paddingTop
      value: 0
      objectReference: {fileID: 0}
    - target: {fileID: 0}
      propertyPath: mSprites.Array.data[5].paddingBottom
      value: 0
      objectReference: {fileID: 0}
    - target: {fileID: 0}
      propertyPath: mSprites.Array.data[6].x
      value: 192
      objectReference: {fileID: 0}
    - target: {fileID: 0}
      propertyPath: mSprites.Array.data[6].y
      value: 2
      objectReference: {fileID: 0}
    - target: {fileID: 0}
      propertyPath: mSprites.Array.data[6].width
      value: 93
      objectReference: {fileID: 0}
    - target: {fileID: 0}
      propertyPath: mSprites.Array.data[6].height
      value: 94
      objectReference: {fileID: 0}
    - target: {fileID: 0}
      propertyPath: mSprites.Array.data[6].paddingLeft
      value: 0
      objectReference: {fileID: 0}
    - target: {fileID: 0}
      propertyPath: mSprites.Array.data[6].paddingRight
      value: 0
      objectReference: {fileID: 0}
    - target: {fileID: 0}
      propertyPath: mSprites.Array.data[6].paddingTop
      value: 0
      objectReference: {fileID: 0}
    - target: {fileID: 0}
      propertyPath: mSprites.Array.data[6].paddingBottom
      value: 0
      objectReference: {fileID: 0}
    - target: {fileID: 0}
      propertyPath: mSprites.Array.data[7].width
      value: 93
      objectReference: {fileID: 0}
    - target: {fileID: 0}
      propertyPath: mSprites.Array.data[7].height
      value: 94
      objectReference: {fileID: 0}
    - target: {fileID: 0}
      propertyPath: mSprites.Array.data[7].paddingLeft
      value: 0
      objectReference: {fileID: 0}
    - target: {fileID: 0}
      propertyPath: mSprites.Array.data[7].paddingRight
      value: 0
      objectReference: {fileID: 0}
    - target: {fileID: 0}
      propertyPath: mSprites.Array.data[7].paddingTop
      value: 0
      objectReference: {fileID: 0}
    - target: {fileID: 0}
      propertyPath: mSprites.Array.data[7].paddingBottom
      value: 0
      objectReference: {fileID: 0}
    - target: {fileID: 0}
      propertyPath: mSprites.Array.data[8].width
      value: 93
      objectReference: {fileID: 0}
    - target: {fileID: 0}
      propertyPath: mSprites.Array.data[8].height
      value: 94
      objectReference: {fileID: 0}
    - target: {fileID: 0}
      propertyPath: mSprites.Array.data[8].paddingLeft
      value: 0
      objectReference: {fileID: 0}
    - target: {fileID: 0}
      propertyPath: mSprites.Array.data[8].paddingRight
      value: 0
      objectReference: {fileID: 0}
    - target: {fileID: 0}
      propertyPath: mSprites.Array.data[8].paddingTop
      value: 0
      objectReference: {fileID: 0}
    - target: {fileID: 0}
      propertyPath: mSprites.Array.data[8].paddingBottom
      value: 0
      objectReference: {fileID: 0}
    - target: {fileID: 0}
      propertyPath: mSprites.Array.data[9].width
      value: 93
      objectReference: {fileID: 0}
    - target: {fileID: 0}
      propertyPath: mSprites.Array.data[9].height
      value: 94
      objectReference: {fileID: 0}
    - target: {fileID: 0}
      propertyPath: mSprites.Array.data[9].paddingLeft
      value: 0
      objectReference: {fileID: 0}
    - target: {fileID: 0}
      propertyPath: mSprites.Array.data[9].paddingRight
      value: 0
      objectReference: {fileID: 0}
    - target: {fileID: 0}
      propertyPath: mSprites.Array.data[9].paddingTop
      value: 0
      objectReference: {fileID: 0}
    - target: {fileID: 0}
      propertyPath: mSprites.Array.data[9].paddingBottom
      value: 0
      objectReference: {fileID: 0}
    - target: {fileID: 0}
      propertyPath: mSprites.Array.data[10].y
      value: 194
      objectReference: {fileID: 0}
    - target: {fileID: 0}
      propertyPath: mSprites.Array.data[10].width
      value: 93
      objectReference: {fileID: 0}
    - target: {fileID: 0}
      propertyPath: mSprites.Array.data[10].height
      value: 94
      objectReference: {fileID: 0}
    - target: {fileID: 0}
      propertyPath: mSprites.Array.data[10].paddingLeft
      value: 0
      objectReference: {fileID: 0}
    - target: {fileID: 0}
      propertyPath: mSprites.Array.data[10].paddingRight
      value: 0
      objectReference: {fileID: 0}
    - target: {fileID: 0}
      propertyPath: mSprites.Array.data[10].paddingTop
      value: 0
      objectReference: {fileID: 0}
    - target: {fileID: 0}
      propertyPath: mSprites.Array.data[10].paddingBottom
      value: 0
      objectReference: {fileID: 0}
    - target: {fileID: 0}
      propertyPath: mSprites.Array.data[11].y
      value: 290
      objectReference: {fileID: 0}
    - target: {fileID: 0}
      propertyPath: mSprites.Array.data[11].width
      value: 93
      objectReference: {fileID: 0}
    - target: {fileID: 0}
      propertyPath: mSprites.Array.data[11].height
      value: 94
      objectReference: {fileID: 0}
    - target: {fileID: 0}
      propertyPath: mSprites.Array.data[11].paddingLeft
      value: 0
      objectReference: {fileID: 0}
    - target: {fileID: 0}
      propertyPath: mSprites.Array.data[11].paddingRight
      value: 0
      objectReference: {fileID: 0}
    - target: {fileID: 0}
      propertyPath: mSprites.Array.data[11].paddingTop
      value: 0
      objectReference: {fileID: 0}
    - target: {fileID: 0}
      propertyPath: mSprites.Array.data[11].paddingBottom
      value: 0
      objectReference: {fileID: 0}
    - target: {fileID: 0}
      propertyPath: mSprites.Array.data[12].width
      value: 93
      objectReference: {fileID: 0}
    - target: {fileID: 0}
      propertyPath: mSprites.Array.data[12].height
      value: 94
      objectReference: {fileID: 0}
    - target: {fileID: 0}
      propertyPath: mSprites.Array.data[12].paddingLeft
      value: 0
      objectReference: {fileID: 0}
    - target: {fileID: 0}
      propertyPath: mSprites.Array.data[12].paddingRight
      value: 0
      objectReference: {fileID: 0}
    - target: {fileID: 0}
      propertyPath: mSprites.Array.data[12].paddingTop
      value: 0
      objectReference: {fileID: 0}
    - target: {fileID: 0}
      propertyPath: mSprites.Array.data[12].paddingBottom
      value: 0
      objectReference: {fileID: 0}
    - target: {fileID: 0}
      propertyPath: mSprites.Array.data[13].width
      value: 93
      objectReference: {fileID: 0}
    - target: {fileID: 0}
      propertyPath: mSprites.Array.data[13].height
      value: 94
      objectReference: {fileID: 0}
    - target: {fileID: 0}
      propertyPath: mSprites.Array.data[13].paddingLeft
      value: 0
      objectReference: {fileID: 0}
    - target: {fileID: 0}
      propertyPath: mSprites.Array.data[13].paddingRight
      value: 0
      objectReference: {fileID: 0}
    - target: {fileID: 0}
      propertyPath: mSprites.Array.data[13].paddingTop
      value: 0
      objectReference: {fileID: 0}
    - target: {fileID: 0}
      propertyPath: mSprites.Array.data[13].paddingBottom
      value: 0
      objectReference: {fileID: 0}
    - target: {fileID: 0}
      propertyPath: mSprites.Array.data[14].width
      value: 93
      objectReference: {fileID: 0}
    - target: {fileID: 0}
      propertyPath: mSprites.Array.data[14].height
      value: 94
      objectReference: {fileID: 0}
    - target: {fileID: 0}
      propertyPath: mSprites.Array.data[14].paddingLeft
      value: 0
      objectReference: {fileID: 0}
    - target: {fileID: 0}
      propertyPath: mSprites.Array.data[14].paddingRight
      value: 0
      objectReference: {fileID: 0}
    - target: {fileID: 0}
      propertyPath: mSprites.Array.data[14].paddingTop
      value: 0
      objectReference: {fileID: 0}
    - target: {fileID: 0}
      propertyPath: mSprites.Array.data[14].paddingBottom
      value: 0
      objectReference: {fileID: 0}
    - target: {fileID: 0}
      propertyPath: mSprites.Array.data[15].width
      value: 93
      objectReference: {fileID: 0}
    - target: {fileID: 0}
      propertyPath: mSprites.Array.data[15].height
      value: 94
      objectReference: {fileID: 0}
    - target: {fileID: 0}
      propertyPath: mSprites.Array.data[15].paddingLeft
      value: 0
      objectReference: {fileID: 0}
    - target: {fileID: 0}
      propertyPath: mSprites.Array.data[15].paddingRight
      value: 0
      objectReference: {fileID: 0}
    - target: {fileID: 0}
      propertyPath: mSprites.Array.data[15].paddingTop
      value: 0
      objectReference: {fileID: 0}
    - target: {fileID: 0}
      propertyPath: mSprites.Array.data[15].paddingBottom
      value: 0
      objectReference: {fileID: 0}
    - target: {fileID: 0}
      propertyPath: mSprites.Array.data[16].width
      value: 93
      objectReference: {fileID: 0}
    - target: {fileID: 0}
      propertyPath: mSprites.Array.data[16].height
      value: 94
      objectReference: {fileID: 0}
    - target: {fileID: 0}
      propertyPath: mSprites.Array.data[16].paddingLeft
      value: 0
      objectReference: {fileID: 0}
    - target: {fileID: 0}
      propertyPath: mSprites.Array.data[16].paddingRight
      value: 0
      objectReference: {fileID: 0}
    - target: {fileID: 0}
      propertyPath: mSprites.Array.data[16].paddingTop
      value: 0
      objectReference: {fileID: 0}
    - target: {fileID: 0}
      propertyPath: mSprites.Array.data[16].paddingBottom
      value: 0
      objectReference: {fileID: 0}
    - target: {fileID: 0}
      propertyPath: mSprites.Array.data[17].y
      value: 290
      objectReference: {fileID: 0}
    - target: {fileID: 0}
      propertyPath: mSprites.Array.data[17].width
      value: 93
      objectReference: {fileID: 0}
    - target: {fileID: 0}
      propertyPath: mSprites.Array.data[17].height
      value: 94
      objectReference: {fileID: 0}
    - target: {fileID: 0}
      propertyPath: mSprites.Array.data[17].paddingLeft
      value: 0
      objectReference: {fileID: 0}
    - target: {fileID: 0}
      propertyPath: mSprites.Array.data[17].paddingRight
      value: 0
      objectReference: {fileID: 0}
    - target: {fileID: 0}
      propertyPath: mSprites.Array.data[17].paddingTop
      value: 0
      objectReference: {fileID: 0}
    - target: {fileID: 0}
      propertyPath: mSprites.Array.data[17].paddingBottom
      value: 0
      objectReference: {fileID: 0}
    - target: {fileID: 0}
      propertyPath: mSprites.Array.data[18].width
      value: 93
      objectReference: {fileID: 0}
    - target: {fileID: 0}
      propertyPath: mSprites.Array.data[18].height
      value: 94
      objectReference: {fileID: 0}
    - target: {fileID: 0}
      propertyPath: mSprites.Array.data[18].paddingLeft
      value: 0
      objectReference: {fileID: 0}
    - target: {fileID: 0}
      propertyPath: mSprites.Array.data[18].paddingRight
      value: 0
      objectReference: {fileID: 0}
    - target: {fileID: 0}
      propertyPath: mSprites.Array.data[18].paddingTop
      value: 0
      objectReference: {fileID: 0}
    - target: {fileID: 0}
      propertyPath: mSprites.Array.data[18].paddingBottom
      value: 0
      objectReference: {fileID: 0}
    m_RemovedComponents: []
  m_ParentPrefab: {fileID: 0}
  m_RootGameObject: {fileID: 164822}
  m_IsPrefabParent: 1
