%YAML 1.1
%TAG !u! tag:unity3d.com,2011:
--- !u!221 &22100000
AnimatorOverrideController:
  m_ObjectHideFlags: 0
  m_PrefabParentObject: {fileID: 0}
  m_PrefabInternal: {fileID: 0}
  m_Name: Tianxinggezhangmen Animator Override Controller
  m_Controller: {fileID: 9100000, guid: 406f1eb7a8916444ca2ff67d6fc9cd04, type: 2}
  m_Clips:
  - m_OriginalClip: {fileID: 7407208, guid: 406f1eb7a8916444ca2ff67d6fc9cd04, type: 2}
    m_OverrideClip: {fileID: 7417596, guid: 05ec7448f605623459fecac6d0e02644, type: 2}
  - m_OriginalClip: {fileID: 7476300, guid: 406f1eb7a8916444ca2ff67d6fc9cd04, type: 2}
    m_OverrideClip: {fileID: 7476300, guid: 406f1eb7a8916444ca2ff67d6fc9cd04, type: 2}
  - m_OriginalClip: {fileID: 7495700, guid: 406f1eb7a8916444ca2ff67d6fc9cd04, type: 2}
    m_OverrideClip: {fileID: 7495700, guid: 406f1eb7a8916444ca2ff67d6fc9cd04, type: 2}
  - m_OriginalClip: {fileID: 7411478, guid: 406f1eb7a8916444ca2ff67d6fc9cd04, type: 2}
    m_OverrideClip: {fileID: 7411478, guid: 406f1eb7a8916444ca2ff67d6fc9cd04, type: 2}
  - m_OriginalClip: {fileID: 7400946, guid: 406f1eb7a8916444ca2ff67d6fc9cd04, type: 2}
    m_OverrideClip: {fileID: 7400946, guid: 406f1eb7a8916444ca2ff67d6fc9cd04, type: 2}
