%YAML 1.1
%TAG !u! tag:unity3d.com,2011:
--- !u!114 &11400000
MonoBehaviour:
  m_ObjectHideFlags: 0
  m_PrefabParentObject: {fileID: 0}
  m_PrefabInternal: {fileID: 0}
  m_GameObject: {fileID: 0}
  m_Enabled: 1
  m_EditorHideFlags: 0
  m_Script: {fileID: 11500000, guid: a6b194f808b1af6499c93410e504af42, type: 3}
  m_Name: Xuanqinggong_Atlas
  m_EditorClassIdentifier: 
  atlasFile: {fileID: 4900000, guid: bcd9c560be5e94b49aa0e3bcad54d0f1, type: 3}
  materials:
  - {fileID: 2100000, guid: ee70c31c8fa374143973442a6cd834db, type: 2}
  - {fileID: 2100000, guid: 782ba06797a34f9419532d88f34fa990, type: 2}
  - {fileID: 2100000, guid: 7bd3d1b8cec082d4da1a9e18c68f6820, type: 2}
