%YAML 1.1
%TAG !u! tag:unity3d.com,2011:
--- !u!1 &175516
GameObject:
  m_ObjectHideFlags: 0
  m_PrefabParentObject: {fileID: 0}
  m_PrefabInternal: {fileID: 100100000}
  serializedVersion: 4
  m_Component:
  - 4: {fileID: 453506}
  - 114: {fileID: 11468958}
  m_Layer: 0
  m_Name: Atlas_Friend
  m_TagString: Untagged
  m_Icon: {fileID: 0}
  m_NavMeshLayer: 0
  m_StaticEditorFlags: 0
  m_IsActive: 1
--- !u!4 &453506
Transform:
  m_ObjectHideFlags: 1
  m_PrefabParentObject: {fileID: 0}
  m_PrefabInternal: {fileID: 100100000}
  m_GameObject: {fileID: 175516}
  m_LocalRotation: {x: 0, y: 0, z: 0, w: 1}
  m_LocalPosition: {x: 0, y: 0, z: 0}
  m_LocalScale: {x: 1, y: 1, z: 1}
  m_Children: []
  m_Father: {fileID: 0}
  m_RootOrder: 0
--- !u!114 &11468958
MonoBehaviour:
  m_ObjectHideFlags: 1
  m_PrefabParentObject: {fileID: 0}
  m_PrefabInternal: {fileID: 100100000}
  m_GameObject: {fileID: 175516}
  m_Enabled: 1
  m_EditorHideFlags: 0
  m_Script: {fileID: 11500000, guid: 4d0c51bb0b6e93049af5e88f93826e3b, type: 3}
  m_Name: 
  m_EditorClassIdentifier: 
  material: {fileID: 2100000, guid: bfa6f6114b0e9574cb77f850ac5adc25, type: 2}
  mSprites:
  - name: '[11-15]UI-s2-yj-baoxiangguanbi'
    x: 355
    y: 2
    width: 81
    height: 75
    borderLeft: 0
    borderRight: 0
    borderTop: 0
    borderBottom: 0
    paddingLeft: 0
    paddingRight: 0
    paddingTop: 0
    paddingBottom: 0
  - name: '[11-15]UI-s2-yj-baoxiangkaiqi'
    x: 355
    y: 79
    width: 79
    height: 83
    borderLeft: 0
    borderRight: 0
    borderTop: 0
    borderBottom: 0
    paddingLeft: 0
    paddingRight: 0
    paddingTop: 0
    paddingBottom: 0
  - name: '[11-15]UI-s2-yj-dingwei'
    x: 280
    y: 253
    width: 37
    height: 49
    borderLeft: 0
    borderRight: 0
    borderTop: 0
    borderBottom: 0
    paddingLeft: 0
    paddingRight: 0
    paddingTop: 0
    paddingBottom: 0
  - name: '[11-15]UI-s2-yj-gantanhaotishi'
    x: 43
    y: 467
    width: 35
    height: 35
    borderLeft: 0
    borderRight: 0
    borderTop: 0
    borderBottom: 0
    paddingLeft: 0
    paddingRight: 0
    paddingTop: 0
    paddingBottom: 0
  - name: '[11-15]UI-s2-yj-gerenzhuye'
    x: 355
    y: 236
    width: 54
    height: 51
    borderLeft: 0
    borderRight: 0
    borderTop: 0
    borderBottom: 0
    paddingLeft: 0
    paddingRight: 0
    paddingTop: 0
    paddingBottom: 0
  - name: '[11-15]UI-s2-yj-laba'
    x: 438
    y: 2
    width: 70
    height: 64
    borderLeft: 0
    borderRight: 0
    borderTop: 0
    borderBottom: 0
    paddingLeft: 0
    paddingRight: 0
    paddingTop: 0
    paddingBottom: 0
  - name: '[11-15]UI-s2-yj-lixian'
    x: 438
    y: 68
    width: 68
    height: 29
    borderLeft: 0
    borderRight: 0
    borderTop: 0
    borderBottom: 0
    paddingLeft: 0
    paddingRight: 0
    paddingTop: 0
    paddingBottom: 0
  - name: '[11-15]UI-s2-yj-shanjianicon'
    x: 2
    y: 467
    width: 39
    height: 39
    borderLeft: 0
    borderRight: 0
    borderTop: 0
    borderBottom: 0
    paddingLeft: 0
    paddingRight: 0
    paddingTop: 0
    paddingBottom: 0
  - name: '[11-15]UI-s2-yj-tianjiahaoyou'
    x: 432
    y: 188
    width: 58
    height: 47
    borderLeft: 0
    borderRight: 0
    borderTop: 0
    borderBottom: 0
    paddingLeft: 0
    paddingRight: 0
    paddingTop: 0
    paddingBottom: 0
  - name: '[11-15]UI-s2-yj-youjian'
    x: 436
    y: 99
    width: 73
    height: 56
    borderLeft: 0
    borderRight: 0
    borderTop: 0
    borderBottom: 0
    paddingLeft: 0
    paddingRight: 0
    paddingTop: 0
    paddingBottom: 0
  - name: '[11-15]UI-s2-yj-youjiankaiqi'
    x: 355
    y: 164
    width: 75
    height: 70
    borderLeft: 0
    borderRight: 0
    borderTop: 0
    borderBottom: 0
    paddingLeft: 0
    paddingRight: 0
    paddingTop: 0
    paddingBottom: 0
  - name: '[11-15]UI-s2-yj-zaixian'
    x: 436
    y: 157
    width: 68
    height: 29
    borderLeft: 0
    borderRight: 0
    borderTop: 0
    borderBottom: 0
    paddingLeft: 0
    paddingRight: 0
    paddingTop: 0
    paddingBottom: 0
  - name: '[11-15]UI-s2-yj-zhuangshitu'
    x: 2
    y: 2
    width: 351
    height: 249
    borderLeft: 0
    borderRight: 0
    borderTop: 0
    borderBottom: 0
    paddingLeft: 0
    paddingRight: 0
    paddingTop: 0
    paddingBottom: 0
  - name: '[11-15]UI-s2-yj-zhuangshituqipao'
    x: 2
    y: 289
    width: 276
    height: 176
    borderLeft: 0
    borderRight: 0
    borderTop: 0
    borderBottom: 0
    paddingLeft: 0
    paddingRight: 0
    paddingTop: 0
    paddingBottom: 0
  mPixelSize: 1
  mReplacement: {fileID: 0}
  mCoordinates: 0
  sprites: []
--- !u!1001 &100100000
Prefab:
  m_ObjectHideFlags: 1
  serializedVersion: 2
  m_Modification:
    m_TransformParent: {fileID: 0}
    m_Modifications:
    - target: {fileID: 0}
      propertyPath: mSprites.Array.size
      value: 14
      objectReference: {fileID: 0}
    - target: {fileID: 0}
      propertyPath: mSprites.Array.data[0].name
      value: '[11-15]UI-s2-yj-baoxiangguanbi'
      objectReference: {fileID: 0}
    - target: {fileID: 0}
      propertyPath: mSprites.Array.data[0].x
      value: 355
      objectReference: {fileID: 0}
    - target: {fileID: 0}
      propertyPath: mSprites.Array.data[0].y
      value: 2
      objectReference: {fileID: 0}
    - target: {fileID: 0}
      propertyPath: mSprites.Array.data[1].name
      value: '[11-15]UI-s2-yj-baoxiangkaiqi'
      objectReference: {fileID: 0}
    - target: {fileID: 0}
      propertyPath: mSprites.Array.data[1].x
      value: 355
      objectReference: {fileID: 0}
    - target: {fileID: 0}
      propertyPath: mSprites.Array.data[1].y
      value: 79
      objectReference: {fileID: 0}
    - target: {fileID: 0}
      propertyPath: mSprites.Array.data[2].name
      value: '[11-15]UI-s2-yj-dingwei'
      objectReference: {fileID: 0}
    - target: {fileID: 0}
      propertyPath: mSprites.Array.data[2].x
      value: 280
      objectReference: {fileID: 0}
    - target: {fileID: 0}
      propertyPath: mSprites.Array.data[2].y
      value: 253
      objectReference: {fileID: 0}
    - target: {fileID: 0}
      propertyPath: mSprites.Array.data[3].name
      value: '[11-15]UI-s2-yj-gantanhaotishi'
      objectReference: {fileID: 0}
    - target: {fileID: 0}
      propertyPath: mSprites.Array.data[3].x
      value: 43
      objectReference: {fileID: 0}
    - target: {fileID: 0}
      propertyPath: mSprites.Array.data[3].y
      value: 467
      objectReference: {fileID: 0}
    - target: {fileID: 0}
      propertyPath: mSprites.Array.data[4].name
      value: '[11-15]UI-s2-yj-gerenzhuye'
      objectReference: {fileID: 0}
    - target: {fileID: 0}
      propertyPath: mSprites.Array.data[4].x
      value: 355
      objectReference: {fileID: 0}
    - target: {fileID: 0}
      propertyPath: mSprites.Array.data[4].y
      value: 236
      objectReference: {fileID: 0}
    - target: {fileID: 0}
      propertyPath: mSprites.Array.data[5].name
      value: '[11-15]UI-s2-yj-laba'
      objectReference: {fileID: 0}
    - target: {fileID: 0}
      propertyPath: mSprites.Array.data[5].x
      value: 438
      objectReference: {fileID: 0}
    - target: {fileID: 0}
      propertyPath: mSprites.Array.data[5].y
      value: 2
      objectReference: {fileID: 0}
    - target: {fileID: 0}
      propertyPath: mSprites.Array.data[6].name
      value: '[11-15]UI-s2-yj-lixian'
      objectReference: {fileID: 0}
    - target: {fileID: 0}
      propertyPath: mSprites.Array.data[6].x
      value: 438
      objectReference: {fileID: 0}
    - target: {fileID: 0}
      propertyPath: mSprites.Array.data[6].y
      value: 68
      objectReference: {fileID: 0}
    - target: {fileID: 0}
      propertyPath: mSprites.Array.data[7].name
      value: '[11-15]UI-s2-yj-shanjianicon'
      objectReference: {fileID: 0}
    - target: {fileID: 0}
      propertyPath: mSprites.Array.data[7].x
      value: 2
      objectReference: {fileID: 0}
    - target: {fileID: 0}
      propertyPath: mSprites.Array.data[7].y
      value: 467
      objectReference: {fileID: 0}
    - target: {fileID: 0}
      propertyPath: mSprites.Array.data[2].width
      value: 37
      objectReference: {fileID: 0}
    - target: {fileID: 0}
      propertyPath: mSprites.Array.data[2].height
      value: 49
      objectReference: {fileID: 0}
    - target: {fileID: 0}
      propertyPath: mSprites.Array.data[3].width
      value: 35
      objectReference: {fileID: 0}
    - target: {fileID: 0}
      propertyPath: mSprites.Array.data[3].height
      value: 35
      objectReference: {fileID: 0}
    - target: {fileID: 0}
      propertyPath: mSprites.Array.data[4].width
      value: 54
      objectReference: {fileID: 0}
    - target: {fileID: 0}
      propertyPath: mSprites.Array.data[4].height
      value: 51
      objectReference: {fileID: 0}
    - target: {fileID: 0}
      propertyPath: mSprites.Array.data[5].width
      value: 70
      objectReference: {fileID: 0}
    - target: {fileID: 0}
      propertyPath: mSprites.Array.data[5].height
      value: 64
      objectReference: {fileID: 0}
    - target: {fileID: 0}
      propertyPath: mSprites.Array.data[6].width
      value: 68
      objectReference: {fileID: 0}
    - target: {fileID: 0}
      propertyPath: mSprites.Array.data[6].height
      value: 29
      objectReference: {fileID: 0}
    - target: {fileID: 0}
      propertyPath: mSprites.Array.data[7].width
      value: 39
      objectReference: {fileID: 0}
    - target: {fileID: 0}
      propertyPath: mSprites.Array.data[7].height
      value: 39
      objectReference: {fileID: 0}
    m_RemovedComponents: []
  m_ParentPrefab: {fileID: 0}
  m_RootGameObject: {fileID: 175516}
  m_IsPrefabParent: 1
