%YAML 1.1
%TAG !u! tag:unity3d.com,2011:
--- !u!221 &22100000
AnimatorOverrideController:
  m_ObjectHideFlags: 0
  m_PrefabParentObject: {fileID: 0}
  m_PrefabInternal: {fileID: 0}
  m_Name: mon_Ylgs Override Controller
  m_Controller: {fileID: 9100000, guid: 6351402ff7419a74eb1f03c43e15819e, type: 2}
  m_Clips:
  - m_OriginalClip: {fileID: 7457492, guid: 6351402ff7419a74eb1f03c43e15819e, type: 2}
    m_OverrideClip: {fileID: 7437456, guid: 3112e7d4559efad4493a2b71451c42e9, type: 2}
  - m_OriginalClip: {fileID: 7465100, guid: 6351402ff7419a74eb1f03c43e15819e, type: 2}
    m_OverrideClip: {fileID: 7457528, guid: 3112e7d4559efad4493a2b71451c42e9, type: 2}
  - m_OriginalClip: {fileID: 7465138, guid: 6351402ff7419a74eb1f03c43e15819e, type: 2}
    m_OverrideClip: {fileID: 7465138, guid: 6351402ff7419a74eb1f03c43e15819e, type: 2}
  - m_OriginalClip: {fileID: 7411808, guid: 6351402ff7419a74eb1f03c43e15819e, type: 2}
    m_OverrideClip: {fileID: 7411808, guid: 6351402ff7419a74eb1f03c43e15819e, type: 2}
  - m_OriginalClip: {fileID: 7479284, guid: 6351402ff7419a74eb1f03c43e15819e, type: 2}
    m_OverrideClip: {fileID: 7446954, guid: 3112e7d4559efad4493a2b71451c42e9, type: 2}
