{
"skeleton": { "hash": "w2FZ7hFSUVZaseVvf2bdyZ6Cgog", "spine": "2.1.27", "width": 1152, "height": 648, "images": "" },
"bones": [
	{ "name": "root", "scaleX": -1 },
	{ "name": "bone", "parent": "root" }
],
"slots": [
	{ "name": "animation/attack/attack.001", "bone": "bone", "attachment": "animation/prepare/prepare.023" }
],
"skins": {
	"default": {
		"animation/attack/attack.001": {
			"animation/attack/attack.001": { "x": 17.99, "y": 80.99, "width": 1152, "height": 648 },
			"animation/attack/attack.003": { "x": 17.99, "y": 80.99, "width": 1152, "height": 648 },
			"animation/attack/attack.005": { "x": 17.99, "y": 80.99, "width": 1152, "height": 648 },
			"animation/attack/attack.007": { "x": 17.99, "y": 80.99, "width": 1152, "height": 648 },
			"animation/attack/attack.009": { "x": 17.99, "y": 80.99, "width": 1152, "height": 648 },
			"animation/attack/attack.011": { "x": 17.99, "y": 80.99, "width": 1152, "height": 648 },
			"animation/attack/attack.013": { "x": 17.99, "y": 80.99, "width": 1152, "height": 648 },
			"animation/attack/attack.015": { "x": 17.99, "y": 80.99, "width": 1152, "height": 648 },
			"animation/attack/attack.017": { "x": 17.99, "y": 80.99, "width": 1152, "height": 648 },
			"animation/attack/attack.019": { "x": 17.99, "y": 80.99, "width": 1152, "height": 648 },
			"animation/attack/attack.021": { "x": 17.99, "y": 80.99, "width": 1152, "height": 648 },
			"animation/attack/attack.023": { "x": 17.99, "y": 80.99, "width": 1152, "height": 648 },
			"animation/dead/dead.001": { "x": 17.99, "y": 80.99, "width": 1152, "height": 648 },
			"animation/dead/dead.003": { "x": 17.99, "y": 80.99, "width": 1152, "height": 648 },
			"animation/dead/dead.005": { "x": 17.99, "y": 80.99, "width": 1152, "height": 648 },
			"animation/dead/dead.007": { "x": 17.99, "y": 80.99, "width": 1152, "height": 648 },
			"animation/dead/dead.009": { "x": 17.99, "y": 80.99, "width": 1152, "height": 648 },
			"animation/dead/dead.011": { "x": 17.99, "y": 80.99, "width": 1152, "height": 648 },
			"animation/dead/dead.013": { "x": 17.99, "y": 80.99, "width": 1152, "height": 648 },
			"animation/dead/dead.015": { "x": 17.99, "y": 80.99, "width": 1152, "height": 648 },
			"animation/dead/dead.017": { "x": 17.99, "y": 80.99, "width": 1152, "height": 648 },
			"animation/dead/dead.019": { "x": 17.99, "y": 80.99, "width": 1152, "height": 648 },
			"animation/dead/dead.021": { "x": 17.99, "y": 80.99, "width": 1152, "height": 648 },
			"animation/dead/dead.023": { "x": 17.99, "y": 80.99, "width": 1152, "height": 648 },
			"animation/hit/hit.001": { "x": 17.99, "y": 80.99, "width": 1152, "height": 648 },
			"animation/hit/hit.003": { "x": 17.99, "y": 80.99, "width": 1152, "height": 648 },
			"animation/hit/hit.005": { "x": 17.99, "y": 80.99, "width": 1152, "height": 648 },
			"animation/hit/hit.007": { "x": 17.99, "y": 80.99, "width": 1152, "height": 648 },
			"animation/hit/hit.009": { "x": 17.99, "y": 80.99, "width": 1152, "height": 648 },
			"animation/hit/hit.011": { "x": 17.99, "y": 80.99, "width": 1152, "height": 648 },
			"animation/prepare/prepare.001": { "x": 17.99, "y": 80.99, "width": 1152, "height": 648 },
			"animation/prepare/prepare.003": { "x": 17.99, "y": 80.99, "width": 1152, "height": 648 },
			"animation/prepare/prepare.005": { "x": 17.99, "y": 80.99, "width": 1152, "height": 648 },
			"animation/prepare/prepare.007": { "x": 17.99, "y": 80.99, "width": 1152, "height": 648 },
			"animation/prepare/prepare.009": { "x": 17.99, "y": 80.99, "width": 1152, "height": 648 },
			"animation/prepare/prepare.011": { "x": 17.99, "y": 80.99, "width": 1152, "height": 648 },
			"animation/prepare/prepare.013": { "x": 17.99, "y": 80.99, "width": 1152, "height": 648 },
			"animation/prepare/prepare.015": { "x": 17.99, "y": 80.99, "width": 1152, "height": 648 },
			"animation/prepare/prepare.017": { "x": 17.99, "y": 80.99, "width": 1152, "height": 648 },
			"animation/prepare/prepare.019": { "x": 17.99, "y": 80.99, "width": 1152, "height": 648 },
			"animation/prepare/prepare.021": { "x": 17.99, "y": 80.99, "width": 1152, "height": 648 },
			"animation/prepare/prepare.023": { "x": 17.99, "y": 80.99, "width": 1152, "height": 648 }
		}
	}
},
"animations": {
	"Attack": {
		"slots": {
			"animation/attack/attack.001": {
				"attachment": [
					{ "time": 0, "name": "animation/attack/attack.001" },
					{ "time": 0.0666, "name": "animation/attack/attack.003" },
					{ "time": 0.1333, "name": "animation/attack/attack.005" },
					{ "time": 0.2, "name": "animation/attack/attack.007" },
					{ "time": 0.2666, "name": "animation/attack/attack.009" },
					{ "time": 0.3333, "name": "animation/attack/attack.011" },
					{ "time": 0.4, "name": "animation/attack/attack.013" },
					{ "time": 0.4666, "name": "animation/attack/attack.015" },
					{ "time": 0.5333, "name": "animation/attack/attack.017" },
					{ "time": 0.6, "name": "animation/attack/attack.019" },
					{ "time": 0.6666, "name": "animation/attack/attack.021" },
					{ "time": 0.7333, "name": "animation/attack/attack.023" }
				]
			}
		}
	},
	"Dead": {
		"slots": {
			"animation/attack/attack.001": {
				"attachment": [
					{ "time": 0, "name": "animation/dead/dead.001" },
					{ "time": 0.0666, "name": "animation/dead/dead.003" },
					{ "time": 0.1333, "name": "animation/dead/dead.005" },
					{ "time": 0.2, "name": "animation/dead/dead.007" },
					{ "time": 0.2666, "name": "animation/dead/dead.009" },
					{ "time": 0.3333, "name": "animation/dead/dead.011" },
					{ "time": 0.4, "name": "animation/dead/dead.013" },
					{ "time": 0.4666, "name": "animation/dead/dead.015" },
					{ "time": 0.5333, "name": "animation/dead/dead.017" },
					{ "time": 0.6, "name": "animation/dead/dead.019" },
					{ "time": 0.6666, "name": "animation/dead/dead.021" },
					{ "time": 0.7333, "name": "animation/dead/dead.023" }
				]
			}
		}
	},
	"Hit": {
		"slots": {
			"animation/attack/attack.001": {
				"attachment": [
					{ "time": 0, "name": "animation/hit/hit.001" },
					{ "time": 0.0666, "name": "animation/hit/hit.003" },
					{ "time": 0.1333, "name": "animation/hit/hit.005" },
					{ "time": 0.2, "name": "animation/hit/hit.007" },
					{ "time": 0.2666, "name": "animation/hit/hit.009" },
					{ "time": 0.3333, "name": "animation/hit/hit.011" }
				]
			}
		}
	},
	"Prepare": {
		"slots": {
			"animation/attack/attack.001": {
				"attachment": [
					{ "time": 0, "name": "animation/prepare/prepare.001" },
					{ "time": 0.0666, "name": "animation/prepare/prepare.003" },
					{ "time": 0.1333, "name": "animation/prepare/prepare.005" },
					{ "time": 0.2, "name": "animation/prepare/prepare.007" },
					{ "time": 0.2666, "name": "animation/prepare/prepare.009" },
					{ "time": 0.3333, "name": "animation/prepare/prepare.011" },
					{ "time": 0.4, "name": "animation/prepare/prepare.013" },
					{ "time": 0.4666, "name": "animation/prepare/prepare.015" },
					{ "time": 0.5333, "name": "animation/prepare/prepare.017" },
					{ "time": 0.6, "name": "animation/prepare/prepare.019" },
					{ "time": 0.6666, "name": "animation/prepare/prepare.021" },
					{ "time": 0.7333, "name": "animation/prepare/prepare.023" }
				]
			}
		}
	},
	"Run": {
		"slots": {
			"animation/attack/attack.001": {
				"attachment": [
					{ "time": 0, "name": "animation/hit/hit.009" }
				]
			}
		}
	}
}
}