%YAML 1.1
%TAG !u! tag:unity3d.com,2011:
--- !u!114 &11400000
MonoBehaviour:
  m_ObjectHideFlags: 0
  m_PrefabParentObject: {fileID: 0}
  m_PrefabInternal: {fileID: 0}
  m_GameObject: {fileID: 0}
  m_Enabled: 1
  m_EditorHideFlags: 0
  m_Script: {fileID: 11500000, guid: a6b194f808b1af6499c93410e504af42, type: 3}
  m_Name: TianXinGe_Atlas
  m_EditorClassIdentifier: 
  atlasFile: {fileID: 4900000, guid: df55b7091c7116047bc5daf2552bcd36, type: 3}
  materials:
  - {fileID: 2100000, guid: f2ac3edc9c1c588459298446dc08d7f0, type: 2}
  - {fileID: 2100000, guid: 03f7af0a81eb63744b6ef61dfa2cd317, type: 2}
  - {fileID: 2100000, guid: 8e7f0e6e6f1ac864f9d89807fe837ebd, type: 2}
