
skeleton.png
size: 2048,2048
format: RGBA8888
filter: Linear,Linear
repeat: none
animation(1)/animation/001
  rotate: true
  xy: 1401, 1649
  size: 212, 113
  orig: 232, 134
  offset: 14, 13
  index: -1
animation(1)/animation/attack/attack.001
  rotate: false
  xy: 184, 223
  size: 184, 158
  orig: 1152, 648
  offset: 507, 236
  index: -1
animation(1)/animation/attack/attack.003
  rotate: false
  xy: 1728, 1216
  size: 206, 163
  orig: 1152, 648
  offset: 519, 231
  index: -1
animation(1)/animation/attack/attack.005
  rotate: true
  xy: 771, 1508
  size: 212, 162
  orig: 1152, 648
  offset: 508, 228
  index: -1
animation(1)/animation/attack/attack.007
  rotate: false
  xy: 1345, 560
  size: 179, 185
  orig: 1152, 648
  offset: 513, 198
  index: -1
animation(1)/animation/attack/attack.009
  rotate: false
  xy: 1526, 426
  size: 172, 158
  orig: 1152, 648
  offset: 510, 229
  index: -1
animation(1)/animation/attack/attack.011
  rotate: false
  xy: 1282, 1863
  size: 218, 183
  orig: 1152, 648
  offset: 464, 203
  index: -1
animation(1)/animation/attack/attack.013
  rotate: false
  xy: 1354, 1129
  size: 160, 166
  orig: 1152, 648
  offset: 492, 224
  index: -1
animation(1)/animation/attack/attack.015
  rotate: false
  xy: 182, 53
  size: 201, 168
  orig: 1152, 648
  offset: 464, 226
  index: -1
animation(1)/animation/attack/attack.027
  rotate: true
  xy: 308, 1326
  size: 144, 150
  orig: 1152, 648
  offset: 501, 234
  index: -1
animation(1)/animation/attack/attack.031
  rotate: false
  xy: 1351, 747
  size: 163, 175
  orig: 1152, 648
  offset: 516, 214
  index: -1
animation(1)/animation/attack/attack.033
  rotate: false
  xy: 769, 1722
  size: 203, 172
  orig: 1152, 648
  offset: 518, 225
  index: -1
animation(1)/animation/dead/dead.001
  rotate: true
  xy: 612, 1290
  size: 197, 157
  orig: 1152, 648
  offset: 508, 237
  index: -1
animation(1)/animation/dead/dead.013
  rotate: true
  xy: 612, 1115
  size: 173, 157
  orig: 1152, 648
  offset: 516, 214
  index: -1
animation(1)/animation/dead/dead.015
  rotate: true
  xy: 1394, 203
  size: 195, 130
  orig: 1152, 648
  offset: 474, 234
  index: -1
animation(1)/animation/dead/dead.017
  rotate: false
  xy: 1726, 1101
  size: 206, 113
  orig: 1152, 648
  offset: 456, 249
  index: -1
animation(1)/animation/dead/dead.019
  rotate: true
  xy: 326, 1119
  size: 205, 128
  orig: 1152, 648
  offset: 457, 238
  index: -1
animation(1)/animation/dead/dead.021
  rotate: false
  xy: 1700, 488
  size: 198, 117
  orig: 1152, 648
  offset: 456, 232
  index: -1
animation(1)/animation/dead/dead.023
  rotate: false
  xy: 1516, 1112
  size: 208, 108
  orig: 1152, 648
  offset: 458, 229
  index: -1
animation(1)/animation/hit/hit.001
  rotate: false
  xy: 1139, 437
  size: 201, 156
  orig: 1152, 648
  offset: 509, 237
  index: -1
animation(1)/animation/hit/hit.002
  rotate: true
  xy: 342, 383
  size: 175, 153
  orig: 1152, 648
  offset: 513, 238
  index: -1
animation(1)/animation/hit/hit.003
  rotate: true
  xy: 1725, 1867
  size: 179, 214
  orig: 1152, 648
  offset: 532, 234
  index: -1
animation(1)/animation/hit/hit.005
  rotate: true
  xy: 2, 729
  size: 216, 165
  orig: 1152, 648
  offset: 539, 235
  index: -1
animation(1)/animation/hit/hit.013
  rotate: true
  xy: 418, 1696
  size: 194, 145
  orig: 1152, 648
  offset: 495, 249
  index: -1
animation(1)/animation/idel/idel_+45/idel_+45.001
  rotate: true
  xy: 771, 1350
  size: 156, 162
  orig: 1152, 648
  offset: 539, 235
  index: -1
animation(1)/animation/idel/idel_+45/idel_+45.005
  rotate: true
  xy: 1526, 259
  size: 165, 172
  orig: 1152, 648
  offset: 539, 225
  index: -1
animation(1)/animation/idel/idel_+45/idel_+45.009
  rotate: false
  xy: 771, 1162
  size: 162, 186
  orig: 1152, 648
  offset: 539, 211
  index: -1
animation(1)/animation/idel/idel_+45/idel_+45.013
  rotate: true
  xy: 1146, 1214
  size: 160, 206
  orig: 1152, 648
  offset: 538, 190
  index: -1
animation(1)/animation/idel/idel_+45/idel_+45.015
  rotate: true
  xy: 1725, 1704
  size: 161, 209
  orig: 1152, 648
  offset: 537, 186
  index: -1
animation(1)/animation/idel/idel_+45/idel_+45.017
  rotate: false
  xy: 164, 1013
  size: 160, 209
  orig: 1152, 648
  offset: 537, 186
  index: -1
animation(1)/animation/idel/idel_+45/idel_+45.019
  rotate: true
  xy: 935, 1091
  size: 157, 206
  orig: 1152, 648
  offset: 538, 189
  index: -1
animation(1)/animation/idel/idel_+45/idel_+45.021
  rotate: true
  xy: 1516, 784
  size: 153, 200
  orig: 1152, 648
  offset: 539, 195
  index: -1
animation(1)/animation/idel/idel_+45/idel_+45.023
  rotate: false
  xy: 460, 1284
  size: 150, 193
  orig: 1152, 648
  offset: 539, 202
  index: -1
animation(1)/animation/idel/idel_+45/idel_+45.027
  rotate: false
  xy: 1900, 148
  size: 146, 176
  orig: 1152, 648
  offset: 540, 219
  index: -1
animation(1)/animation/idel/idel_+45/idel_+45.031
  rotate: true
  xy: 771, 1019
  size: 141, 162
  orig: 1152, 648
  offset: 540, 234
  index: -1
animation(1)/animation/idel/idel_+45/idel_+45.033
  rotate: false
  xy: 1359, 1297
  size: 155, 162
  orig: 1152, 648
  offset: 540, 234
  index: -1
animation(1)/animation/idel/idel_-45/idel_-45.001
  rotate: false
  xy: 771, 857
  size: 162, 160
  orig: 1152, 648
  offset: 504, 240
  index: -1
animation(1)/animation/idel/idel_-45/idel_-45.003
  rotate: false
  xy: 771, 695
  size: 162, 160
  orig: 1152, 648
  offset: 505, 240
  index: -1
animation(1)/animation/idel/idel_-45/idel_-45.009
  rotate: true
  xy: 558, 148
  size: 174, 159
  orig: 1152, 648
  offset: 506, 241
  index: -1
animation(1)/animation/idel/idel_-45/idel_-45.013
  rotate: true
  xy: 612, 928
  size: 185, 157
  orig: 1152, 648
  offset: 504, 242
  index: -1
animation(1)/animation/idel/idel_-45/idel_-45.021
  rotate: true
  xy: 612, 738
  size: 188, 157
  orig: 1152, 648
  offset: 500, 242
  index: -1
animation(1)/animation/idel/idel_-45/idel_-45.023
  rotate: false
  xy: 1330, 2
  size: 185, 157
  orig: 1152, 648
  offset: 500, 242
  index: -1
animation(1)/animation/idel/idel_-45/idel_-45.025
  rotate: false
  xy: 1342, 400
  size: 182, 158
  orig: 1152, 648
  offset: 500, 241
  index: -1
animation(1)/animation/idel/idel_-45/idel_-45_biyana
  rotate: true
  xy: 308, 1301
  size: 23, 16
  orig: 23, 16
  offset: 0, 0
  index: -1
animation(1)/animation/idel/idel_B/idel_B.001
  rotate: false
  xy: 256, 1696
  size: 160, 187
  orig: 1152, 648
  offset: 513, 205
  index: -1
animation(1)/animation/idel/idel_B/idel_B.003
  rotate: false
  xy: 1360, 1461
  size: 154, 186
  orig: 1152, 648
  offset: 512, 206
  index: -1
animation(1)/animation/idel/idel_B/idel_B.005
  rotate: false
  xy: 1900, 326
  size: 146, 186
  orig: 1152, 648
  offset: 512, 207
  index: -1
animation(1)/animation/idel/idel_B/idel_B.011
  rotate: true
  xy: 1143, 758
  size: 137, 204
  orig: 1152, 648
  offset: 515, 188
  index: -1
animation(1)/animation/idel/idel_B/idel_B.013
  rotate: true
  xy: 935, 1250
  size: 141, 209
  orig: 1152, 648
  offset: 517, 182
  index: -1
animation(1)/animation/idel/idel_B/idel_B.015
  rotate: true
  xy: 935, 1393
  size: 143, 210
  orig: 1152, 648
  offset: 519, 181
  index: -1
animation(1)/animation/idel/idel_B/idel_B.017
  rotate: false
  xy: 184, 383
  size: 156, 207
  orig: 1152, 648
  offset: 515, 183
  index: -1
animation(1)/animation/idel/idel_B/idel_B.019
  rotate: true
  xy: 935, 606
  size: 161, 203
  orig: 1152, 648
  offset: 515, 187
  index: -1
animation(1)/animation/idel/idel_B/idel_B.021
  rotate: true
  xy: 1700, 324
  size: 162, 198
  orig: 1152, 648
  offset: 517, 192
  index: -1
animation(1)/animation/idel/idel_B/idel_B.027
  rotate: true
  xy: 746, 530
  size: 163, 187
  orig: 1152, 648
  offset: 521, 203
  index: -1
animation(1)/animation/idel/idel_F/idel_F.013
  rotate: true
  xy: 337, 592
  size: 118, 154
  orig: 1152, 648
  offset: 510, 242
  index: -1
animation(1)/animation/idel/idel_F/idel_F.015
  rotate: true
  xy: 497, 324
  size: 123, 154
  orig: 1152, 648
  offset: 503, 242
  index: -1
animation(1)/animation/idel/idel_F/idel_F.017
  rotate: true
  xy: 497, 450
  size: 127, 154
  orig: 1152, 648
  offset: 497, 242
  index: -1
animation(1)/animation/idel/idel_F/idel_F.021
  rotate: false
  xy: 612, 581
  size: 132, 155
  orig: 1152, 648
  offset: 490, 241
  index: -1
animation(1)/animation/idel/idel_F/idel_F.029
  rotate: true
  xy: 1884, 5
  size: 141, 156
  orig: 1152, 648
  offset: 482, 241
  index: -1
animation(1)/animation/idel/idel_F/idel_F_biyan@
  rotate: false
  xy: 974, 1877
  size: 28, 17
  orig: 28, 17
  offset: 0, 0
  index: -1
animation(1)/animation/idel/idel_L R/idel_L R.015
  rotate: false
  xy: 884, 283
  size: 199, 164
  orig: 1152, 648
  offset: 512, 235
  index: -1
animation(1)/animation/idel/idel_L R/idel_L R.017
  rotate: false
  xy: 1700, 607
  size: 198, 166
  orig: 1152, 648
  offset: 510, 233
  index: -1
animation(1)/animation/idel/idel_L R/idel_L R.023
  rotate: false
  xy: 1085, 274
  size: 201, 161
  orig: 1152, 648
  offset: 507, 238
  index: -1
animation(1)/animation/idel/idel_L R/idel_L R.025
  rotate: false
  xy: 1140, 595
  size: 203, 161
  orig: 1152, 648
  offset: 507, 238
  index: -1
animation(1)/animation/idel/idel_L R/idel_L R.027
  rotate: false
  xy: 1143, 1051
  size: 206, 161
  orig: 1152, 648
  offset: 507, 238
  index: -1
animation(1)/animation/idel/idel_L R/idel_L R.029
  rotate: false
  xy: 1729, 1381
  size: 205, 161
  orig: 1152, 648
  offset: 508, 238
  index: -1
animation(1)/animation/idel/idel_L R/idel_L R.031
  rotate: false
  xy: 1718, 775
  size: 202, 160
  orig: 1152, 648
  offset: 509, 239
  index: -1
animation(1)/animation/idel/idel_L R/idel_L R_biyan@
  rotate: false
  xy: 147, 1208
  size: 15, 14
  orig: 16, 14
  offset: 0, 0
  index: -1
animation(1)/animation/run/run_-45/run_-45.001
  rotate: false
  xy: 1700, 161
  size: 198, 161
  orig: 1152, 648
  offset: 493, 240
  index: -1
animation(1)/animation/run/run_-45/run_-45.019
  rotate: false
  xy: 1730, 1544
  size: 204, 158
  orig: 1152, 648
  offset: 497, 244
  index: -1
animation(1)/animation/run/run_-45/run_-45.021
  rotate: true
  xy: 1351, 924
  size: 203, 163
  orig: 1152, 648
  offset: 495, 243
  index: -1
animation(1)/animation/run/run_-45/run_-45.023
  rotate: true
  xy: 719, 161
  size: 200, 163
  orig: 1152, 648
  offset: 494, 241
  index: -1
animation(1)/animation/run/run_B/run_B.005
  rotate: false
  xy: 1936, 1694
  size: 110, 171
  orig: 1152, 648
  offset: 530, 229
  index: -1
animation(1)/animation/run/run_B/run_B.007
  rotate: false
  xy: 1936, 1521
  size: 110, 171
  orig: 1152, 648
  offset: 528, 230
  index: -1
animation(1)/animation/run/run_B/run_B.011
  rotate: false
  xy: 497, 741
  size: 113, 172
  orig: 1152, 648
  offset: 523, 229
  index: -1
animation(1)/animation/run/run_B/run_B.013
  rotate: true
  xy: 884, 166
  size: 115, 174
  orig: 1152, 648
  offset: 522, 226
  index: -1
animation(1)/animation/run/run_B/run_B.015
  rotate: false
  xy: 1934, 1044
  size: 112, 170
  orig: 1152, 648
  offset: 523, 230
  index: -1
animation(1)/animation/run/run_B/run_B.019
  rotate: false
  xy: 1922, 714
  size: 124, 166
  orig: 1152, 648
  offset: 508, 235
  index: -1
animation(1)/animation/run/run_B/run_B.021
  rotate: false
  xy: 331, 951
  size: 123, 166
  orig: 1152, 648
  offset: 509, 235
  index: -1
animation(1)/animation/run/run_F/run_F.007
  rotate: false
  xy: 1936, 1358
  size: 109, 161
  orig: 1152, 648
  offset: 513, 243
  index: -1
animation(1)/animation/run/run_F/run_F.009
  rotate: true
  xy: 1228, 161
  size: 111, 164
  orig: 1152, 648
  offset: 513, 243
  index: -1
animation(1)/animation/run/run_F/run_F.019
  rotate: false
  xy: 497, 579
  size: 113, 160
  orig: 1152, 648
  offset: 513, 244
  index: -1
animation(1)/animation/run/run_F/run_F.021
  rotate: true
  xy: 1060, 161
  size: 111, 166
  orig: 1152, 648
  offset: 514, 242
  index: -1
animation(1)/animation/run/run_F/run_F.023
  rotate: false
  xy: 1941, 1880
  size: 104, 166
  orig: 1152, 648
  offset: 515, 240
  index: -1
animation(1)/animation/run/run_L R/run_L R.001
  rotate: false
  xy: 1188, 1699
  size: 211, 162
  orig: 1152, 648
  offset: 505, 239
  index: -1
animation(1)/animation/run/run_L R/run_L R.003
  rotate: false
  xy: 1147, 1376
  size: 210, 160
  orig: 1152, 648
  offset: 506, 240
  index: -1
animation(1)/animation/run/run_L R/run_L R.005
  rotate: true
  xy: 147, 1224
  size: 209, 159
  orig: 1152, 648
  offset: 509, 241
  index: -1
animation(1)/animation/run/run_L R/run_L R.007
  rotate: false
  xy: 935, 930
  size: 206, 159
  orig: 1152, 648
  offset: 514, 241
  index: -1
animation(1)/animation/run/run_L R/run_L R.013
  rotate: false
  xy: 746, 2
  size: 197, 157
  orig: 1152, 648
  offset: 520, 244
  index: -1
animation(1)/animation/run/run_L R/run_L R.015
  rotate: true
  xy: 337, 712
  size: 201, 158
  orig: 1152, 648
  offset: 518, 243
  index: -1
animation(1)/animation/run/run_L R/run_L R.017
  rotate: true
  xy: 176, 592
  size: 208, 159
  orig: 1152, 648
  offset: 514, 241
  index: -1
animation(1)/animation/run/run_L R/run_L R.019
  rotate: false
  xy: 1147, 1538
  size: 211, 159
  orig: 1152, 648
  offset: 510, 242
  index: -1
animation(1)/animation/run/run_L R/run_L R.021
  rotate: true
  xy: 169, 802
  size: 209, 160
  orig: 1152, 648
  offset: 507, 242
  index: -1
animation(1)/animation/run/run_L R/run_L R.023
  rotate: false
  xy: 935, 1538
  size: 210, 162
  orig: 1152, 648
  offset: 505, 239
  index: -1
animation(1)/animation/skill_b/skill_b.001
  rotate: false
  xy: 1139, 2
  size: 189, 157
  orig: 1152, 648
  offset: 502, 237
  index: -1
animation(1)/animation/skill_b/skill_b.021
  rotate: false
  xy: 974, 1702
  size: 212, 159
  orig: 1152, 648
  offset: 510, 243
  index: -1
animation(1)/animation/skill_b/skill_b.025
  rotate: false
  xy: 1925, 882
  size: 121, 160
  orig: 1152, 648
  offset: 509, 250
  index: -1
animation(1)/animation/skill_b/skill_b.041
  rotate: true
  xy: 385, 148
  size: 174, 171
  orig: 1152, 648
  offset: 526, 253
  index: -1
animation(1)/animation/skill_b/skill_b.049
  rotate: false
  xy: 1702, 2
  size: 180, 157
  orig: 1152, 648
  offset: 518, 228
  index: -1
animation(1)/animation/skill_b/skill_b.055
  rotate: false
  xy: 1516, 939
  size: 200, 171
  orig: 1152, 648
  offset: 487, 246
  index: -1
animation(1)/animation/skill_b/skill_b.057
  rotate: true
  xy: 1526, 586
  size: 196, 172
  orig: 1152, 648
  offset: 485, 251
  index: -1
animation(1)/animation/skill_b/skill_b.065
  rotate: true
  xy: 585, 3
  size: 143, 159
  orig: 1152, 648
  offset: 497, 256
  index: -1
animation(1)/animation/skill_b/skill_b.067
  rotate: true
  xy: 456, 915
  size: 161, 154
  orig: 1152, 648
  offset: 496, 251
  index: -1
animation(1)/animation/skill_b/skill_b.071
  rotate: false
  xy: 935, 449
  size: 202, 155
  orig: 1152, 648
  offset: 500, 241
  index: -1
animation(1)/animation/skill_c/skill_c.003
  rotate: false
  xy: 1516, 1384
  size: 211, 158
  orig: 1152, 648
  offset: 503, 236
  index: -1
animation(1)/animation/skill_c/skill_c.005
  rotate: false
  xy: 1143, 897
  size: 206, 152
  orig: 1152, 648
  offset: 553, 243
  index: -1
animation(1)/animation/skill_c/skill_c.010
  rotate: true
  xy: 2, 1435
  size: 259, 164
  orig: 1152, 648
  offset: 451, 224
  index: -1
animation(1)/animation/skill_c/skill_c.011
  rotate: true
  xy: 2, 947
  size: 226, 160
  orig: 1152, 648
  offset: 448, 224
  index: -1
animation(1)/animation/skill_c/skill_c.026
  rotate: false
  xy: 816, 1896
  size: 233, 150
  orig: 1152, 648
  offset: 490, 225
  index: -1
animation(1)/animation/skill_c/skill_c.028
  rotate: false
  xy: 2, 1696
  size: 252, 187
  orig: 1152, 648
  offset: 411, 189
  index: -1
animation(1)/animation/skill_c/skill_c.030
  rotate: false
  xy: 1051, 1863
  size: 229, 183
  orig: 1152, 648
  offset: 430, 194
  index: -1
animation(1)/animation/skill_c/skill_c.032
  rotate: true
  xy: 1516, 1704
  size: 165, 207
  orig: 1152, 648
  offset: 488, 169
  index: -1
animation(1)/animation/skill_c/skill_c.034
  rotate: false
  xy: 460, 1479
  size: 150, 215
  orig: 1152, 648
  offset: 505, 162
  index: -1
animation(1)/animation/skill_c/skill_c.040
  rotate: true
  xy: 1900, 514
  size: 198, 146
  orig: 1152, 648
  offset: 506, 247
  index: -1
animation(1)/animation/skill_c/skill_c.042
  rotate: true
  xy: 2, 87
  size: 208, 178
  orig: 1152, 648
  offset: 509, 247
  index: -1
animation(1)/animation/skill_c/skill_c.044
  rotate: true
  xy: 565, 1704
  size: 191, 202
  orig: 1152, 648
  offset: 521, 220
  index: -1
animation(1)/animation/skill_c/skill_c.046
  rotate: true
  xy: 2, 297
  size: 213, 180
  orig: 1152, 648
  offset: 530, 229
  index: -1
animation(1)/animation/skill_c/skill_c.052
  rotate: false
  xy: 1718, 937
  size: 205, 162
  orig: 1152, 648
  offset: 526, 225
  index: -1
animation(1)/animation/skill_c/skill_c.054
  rotate: false
  xy: 653, 363
  size: 199, 165
  orig: 1152, 648
  offset: 522, 217
  index: -1
animation(1)/animation/skill_c/skill_c.058
  rotate: true
  xy: 612, 1489
  size: 213, 157
  orig: 1152, 648
  offset: 496, 251
  index: -1
animation(1)/animation/skill_c/skill_c.060
  rotate: false
  xy: 283, 1892
  size: 272, 154
  orig: 1152, 648
  offset: 445, 215
  index: -1
animation(1)/animation/skill_c/skill_c.062
  rotate: false
  xy: 2, 1885
  size: 279, 161
  orig: 1152, 648
  offset: 446, 208
  index: -1
animation(1)/animation/skill_c/skill_c.064
  rotate: true
  xy: 168, 1470
  size: 224, 138
  orig: 1152, 648
  offset: 446, 234
  index: -1
animation(1)/animation/skill_c/skill_c.066
  rotate: true
  xy: 2, 1175
  size: 258, 143
  orig: 1152, 648
  offset: 445, 232
  index: -1
animation(1)/animation/skill_c/skill_c.068
  rotate: false
  xy: 557, 1897
  size: 257, 149
  orig: 1152, 648
  offset: 453, 232
  index: -1
animation(1)/animation/skill_c/skill_c.070
  rotate: true
  xy: 456, 1078
  size: 204, 154
  orig: 1152, 648
  offset: 501, 236
  index: -1
animation(1)/animation/skill_c/skill_c.072
  rotate: false
  xy: 945, 2
  size: 192, 157
  orig: 1152, 648
  offset: 512, 237
  index: -1
animation(1)/animation/win/win.001
  rotate: false
  xy: 1517, 2
  size: 183, 157
  orig: 1152, 648
  offset: 508, 237
  index: -1
animation(1)/animation/win/win.003
  rotate: false
  xy: 935, 769
  size: 206, 159
  orig: 1152, 648
  offset: 523, 235
  index: -1
animation(1)/animation/win/win.009
  rotate: true
  xy: 2, 512
  size: 215, 172
  orig: 1152, 648
  offset: 515, 223
  index: -1
animation(1)/animation/win/win.011
  rotate: false
  xy: 1502, 1871
  size: 221, 175
  orig: 1152, 648
  offset: 508, 214
  index: -1
animation(1)/animation/win/win.015
  rotate: true
  xy: 308, 1472
  size: 222, 150
  orig: 1152, 648
  offset: 517, 235
  index: -1
animation(1)/animation/win/win.017
  rotate: false
  xy: 1516, 1544
  size: 212, 158
  orig: 1152, 648
  offset: 505, 230
  index: -1
animation(1)/animation/win/win.019
  rotate: false
  xy: 1516, 1222
  size: 210, 160
  orig: 1152, 648
  offset: 498, 233
  index: -1
animation(1)/animation/win/win.023
  rotate: false
  xy: 385, 2
  size: 198, 144
  orig: 1152, 648
  offset: 492, 250
  index: -1

skeleton2.png
size: 2048,2048
format: RGBA8888
filter: Linear,Linear
repeat: none
animation(1)/animation/attack/attack.017
  rotate: false
  xy: 919, 359
  size: 181, 165
  orig: 1152, 648
  offset: 474, 231
  index: -1
animation(1)/animation/attack/attack.019
  rotate: false
  xy: 2, 390
  size: 165, 165
  orig: 1152, 648
  offset: 466, 235
  index: -1
animation(1)/animation/attack/attack.021
  rotate: false
  xy: 184, 34
  size: 184, 168
  orig: 1152, 648
  offset: 434, 235
  index: -1
animation(1)/animation/attack/attack.023
  rotate: false
  xy: 183, 877
  size: 179, 160
  orig: 1152, 648
  offset: 436, 242
  index: -1
animation(1)/animation/attack/attack.025
  rotate: true
  xy: 489, 1660
  size: 139, 145
  orig: 1152, 648
  offset: 479, 245
  index: -1
animation(1)/animation/attack/attack.029
  rotate: false
  xy: 1605, 1480
  size: 153, 151
  orig: 1152, 648
  offset: 511, 233
  index: -1
animation(1)/animation/attack/attack.035
  rotate: false
  xy: 1053, 852
  size: 191, 160
  orig: 1152, 648
  offset: 516, 235
  index: -1
animation(1)/animation/dead/dead.003
  rotate: false
  xy: 1452, 1163
  size: 195, 158
  orig: 1152, 648
  offset: 531, 230
  index: -1
animation(1)/animation/dead/dead.005
  rotate: true
  xy: 517, 701
  size: 161, 166
  orig: 1152, 648
  offset: 535, 225
  index: -1
animation(1)/animation/dead/dead.007
  rotate: true
  xy: 709, 1343
  size: 153, 177
  orig: 1152, 648
  offset: 522, 227
  index: -1
animation(1)/animation/dead/dead.009
  rotate: true
  xy: 1102, 354
  size: 165, 189
  orig: 1152, 648
  offset: 511, 228
  index: -1
animation(1)/animation/dead/dead.011
  rotate: true
  xy: 1699, 511
  size: 164, 171
  orig: 1152, 648
  offset: 513, 224
  index: -1
animation(1)/animation/hit/hit.011
  rotate: false
  xy: 1093, 1487
  size: 178, 148
  orig: 1152, 648
  offset: 517, 247
  index: -1
animation(1)/animation/hit/hit.015
  rotate: false
  xy: 888, 1337
  size: 184, 153
  orig: 1152, 648
  offset: 506, 244
  index: -1
animation(1)/animation/idel/idel_+45/idel_+45.003
  rotate: false
  xy: 1293, 346
  size: 165, 165
  orig: 1152, 648
  offset: 539, 232
  index: -1
animation(1)/animation/idel/idel_+45/idel_+45.007
  rotate: true
  xy: 169, 383
  size: 164, 178
  orig: 1152, 648
  offset: 539, 219
  index: -1
animation(1)/animation/idel/idel_+45/idel_+45.011
  rotate: true
  xy: 1641, 677
  size: 161, 197
  orig: 1152, 648
  offset: 539, 199
  index: -1
animation(1)/animation/idel/idel_+45/idel_+45.025
  rotate: true
  xy: 365, 1511
  size: 147, 185
  orig: 1152, 648
  offset: 540, 210
  index: -1
animation(1)/animation/idel/idel_+45/idel_+45.029
  rotate: true
  xy: 552, 1503
  size: 147, 167
  orig: 1152, 648
  offset: 540, 228
  index: -1
animation(1)/animation/idel/idel_+45/idel_+45.035
  rotate: true
  xy: 163, 1045
  size: 159, 163
  orig: 1152, 648
  offset: 540, 234
  index: -1
animation(1)/animation/idel/idel_-45/idel_-45.005
  rotate: false
  xy: 526, 864
  size: 164, 160
  orig: 1152, 648
  offset: 506, 240
  index: -1
animation(1)/animation/idel/idel_-45/idel_-45.007
  rotate: false
  xy: 692, 861
  size: 169, 160
  orig: 1152, 648
  offset: 506, 240
  index: -1
animation(1)/animation/idel/idel_-45/idel_-45.011
  rotate: false
  xy: 1649, 1163
  size: 180, 158
  orig: 1152, 648
  offset: 505, 242
  index: -1
animation(1)/animation/idel/idel_-45/idel_-45.015
  rotate: false
  xy: 348, 1199
  size: 188, 156
  orig: 1152, 648
  offset: 503, 243
  index: -1
animation(1)/animation/idel/idel_-45/idel_-45.017
  rotate: false
  xy: 1070, 1174
  size: 189, 156
  orig: 1152, 648
  offset: 502, 243
  index: -1
animation(1)/animation/idel/idel_-45/idel_-45.019
  rotate: false
  xy: 1261, 1171
  size: 189, 156
  orig: 1152, 648
  offset: 501, 243
  index: -1
animation(1)/animation/idel/idel_-45/idel_-45.027
  rotate: false
  xy: 1831, 1163
  size: 183, 158
  orig: 1152, 648
  offset: 500, 241
  index: -1
animation(1)/animation/idel/idel_-45/idel_-45.029
  rotate: false
  xy: 702, 1023
  size: 179, 159
  orig: 1152, 648
  offset: 501, 240
  index: -1
animation(1)/animation/idel/idel_-45/idel_-45.031
  rotate: false
  xy: 527, 1026
  size: 173, 159
  orig: 1152, 648
  offset: 502, 240
  index: -1
animation(1)/animation/idel/idel_-45/idel_-45.033
  rotate: false
  xy: 883, 1017
  size: 169, 159
  orig: 1152, 648
  offset: 503, 240
  index: -1
animation(1)/animation/idel/idel_-45/idel_-45.035
  rotate: true
  xy: 364, 874
  size: 163, 160
  orig: 1152, 648
  offset: 504, 240
  index: -1
animation(1)/animation/idel/idel_B/idel_B.007
  rotate: true
  xy: 1197, 1637
  size: 139, 185
  orig: 1152, 648
  offset: 512, 207
  index: -1
animation(1)/animation/idel/idel_B/idel_B.009
  rotate: true
  xy: 1793, 1776
  size: 136, 195
  orig: 1152, 648
  offset: 514, 197
  index: -1
animation(1)/animation/idel/idel_B/idel_B.023
  rotate: true
  xy: 1246, 848
  size: 160, 193
  orig: 1152, 648
  offset: 521, 197
  index: -1
animation(1)/animation/idel/idel_B/idel_B.025
  rotate: true
  xy: 863, 855
  size: 160, 188
  orig: 1152, 648
  offset: 522, 202
  index: -1
animation(1)/animation/idel/idel_B/idel_B.029
  rotate: true
  xy: 1320, 513
  size: 163, 188
  orig: 1152, 648
  offset: 521, 203
  index: -1
animation(1)/animation/idel/idel_B/idel_B.031
  rotate: true
  xy: 1460, 345
  size: 165, 188
  orig: 1152, 648
  offset: 519, 203
  index: -1
animation(1)/animation/idel/idel_B/idel_B.033
  rotate: true
  xy: 349, 372
  size: 164, 189
  orig: 1152, 648
  offset: 517, 203
  index: -1
animation(1)/animation/idel/idel_B/idel_B.035
  rotate: true
  xy: 761, 528
  size: 162, 188
  orig: 1152, 648
  offset: 514, 204
  index: -1
animation(1)/animation/idel/idel_F/idel_F.001
  rotate: true
  xy: 1134, 1780
  size: 133, 158
  orig: 1152, 648
  offset: 497, 239
  index: -1
animation(1)/animation/idel/idel_F/idel_F.003
  rotate: true
  xy: 651, 1793
  size: 126, 159
  orig: 1152, 648
  offset: 505, 239
  index: -1
animation(1)/animation/idel/idel_F/idel_F.005
  rotate: true
  xy: 490, 1801
  size: 119, 159
  orig: 1152, 648
  offset: 513, 239
  index: -1
animation(1)/animation/idel/idel_F/idel_F.007
  rotate: true
  xy: 1331, 1914
  size: 115, 157
  orig: 1152, 648
  offset: 517, 240
  index: -1
animation(1)/animation/idel/idel_F/idel_F.009
  rotate: true
  xy: 1490, 1914
  size: 115, 156
  orig: 1152, 648
  offset: 516, 240
  index: -1
animation(1)/animation/idel/idel_F/idel_F.011
  rotate: true
  xy: 1648, 1914
  size: 115, 155
  orig: 1152, 648
  offset: 515, 241
  index: -1
animation(1)/animation/idel/idel_F/idel_F.019
  rotate: true
  xy: 978, 1785
  size: 130, 154
  orig: 1152, 648
  offset: 493, 242
  index: -1
animation(1)/animation/idel/idel_F/idel_F.023
  rotate: true
  xy: 1477, 1777
  size: 135, 155
  orig: 1152, 648
  offset: 487, 241
  index: -1
animation(1)/animation/idel/idel_F/idel_F.025
  rotate: true
  xy: 160, 1669
  size: 138, 156
  orig: 1152, 648
  offset: 484, 241
  index: -1
animation(1)/animation/idel/idel_F/idel_F.027
  rotate: true
  xy: 2, 1672
  size: 137, 156
  orig: 1152, 648
  offset: 485, 241
  index: -1
animation(1)/animation/idel/idel_F/idel_F.031
  rotate: true
  xy: 1587, 1635
  size: 140, 156
  orig: 1152, 648
  offset: 484, 241
  index: -1
animation(1)/animation/idel/idel_F/idel_F.033
  rotate: true
  xy: 636, 1652
  size: 139, 157
  orig: 1152, 648
  offset: 487, 240
  index: -1
animation(1)/animation/idel/idel_F/idel_F.035
  rotate: true
  xy: 1634, 1777
  size: 135, 157
  orig: 1152, 648
  offset: 494, 240
  index: -1
animation(1)/animation/idel/idel_L R/idel_L R.001
  rotate: false
  xy: 862, 692
  size: 189, 161
  orig: 1152, 648
  offset: 514, 239
  index: -1
animation(1)/animation/idel/idel_L R/idel_L R.003
  rotate: false
  xy: 1441, 840
  size: 188, 160
  orig: 1152, 648
  offset: 515, 240
  index: -1
animation(1)/animation/idel/idel_L R/idel_L R.005
  rotate: false
  xy: 1631, 840
  size: 188, 160
  orig: 1152, 648
  offset: 516, 240
  index: -1
animation(1)/animation/idel/idel_L R/idel_L R.007
  rotate: false
  xy: 1252, 1010
  size: 191, 159
  orig: 1152, 648
  offset: 516, 241
  index: -1
animation(1)/animation/idel/idel_L R/idel_L R.009
  rotate: false
  xy: 1445, 1002
  size: 194, 159
  orig: 1152, 648
  offset: 516, 241
  index: -1
animation(1)/animation/idel/idel_L R/idel_L R.011
  rotate: false
  xy: 1641, 1002
  size: 198, 159
  orig: 1152, 648
  offset: 515, 241
  index: -1
animation(1)/animation/idel/idel_L R/idel_L R.013
  rotate: false
  xy: 1821, 840
  size: 199, 160
  orig: 1152, 648
  offset: 514, 240
  index: -1
animation(1)/animation/idel/idel_L R/idel_L R.019
  rotate: false
  xy: 540, 368
  size: 197, 164
  orig: 1152, 648
  offset: 509, 235
  index: -1
animation(1)/animation/idel/idel_L R/idel_L R.021
  rotate: false
  xy: 1840, 677
  size: 199, 161
  orig: 1152, 648
  offset: 508, 238
  index: -1
animation(1)/animation/idel/idel_L R/idel_L R.033
  rotate: false
  xy: 172, 549
  size: 196, 161
  orig: 1152, 648
  offset: 511, 239
  index: -1
animation(1)/animation/idel/idel_L R/idel_L R.035
  rotate: false
  xy: 1245, 685
  size: 191, 161
  orig: 1152, 648
  offset: 513, 239
  index: -1
animation(1)/animation/run/run_+45/run_+45.001
  rotate: false
  xy: 1824, 343
  size: 173, 166
  orig: 1152, 648
  offset: 533, 236
  index: -1
animation(1)/animation/run/run_+45/run_+45.003
  rotate: false
  xy: 557, 29
  size: 173, 169
  orig: 1152, 648
  offset: 533, 233
  index: -1
animation(1)/animation/run/run_+45/run_+45.005
  rotate: false
  xy: 1283, 5
  size: 172, 170
  orig: 1152, 648
  offset: 535, 232
  index: -1
animation(1)/animation/run/run_+45/run_+45.007
  rotate: false
  xy: 1643, 174
  size: 169, 168
  orig: 1152, 648
  offset: 538, 234
  index: -1
animation(1)/animation/run/run_+45/run_+45.009
  rotate: false
  xy: 736, 193
  size: 176, 167
  orig: 1152, 648
  offset: 537, 236
  index: -1
animation(1)/animation/run/run_+45/run_+45.011
  rotate: false
  xy: 2, 215
  size: 185, 166
  orig: 1152, 648
  offset: 531, 237
  index: -1
animation(1)/animation/run/run_+45/run_+45.013
  rotate: false
  xy: 1099, 185
  size: 187, 167
  orig: 1152, 648
  offset: 533, 236
  index: -1
animation(1)/animation/run/run_+45/run_+45.015
  rotate: false
  xy: 189, 204
  size: 187, 166
  orig: 1152, 648
  offset: 535, 236
  index: -1
animation(1)/animation/run/run_+45/run_+45.017
  rotate: false
  xy: 739, 362
  size: 178, 164
  orig: 1152, 648
  offset: 536, 239
  index: -1
animation(1)/animation/run/run_+45/run_+45.019
  rotate: false
  xy: 2, 722
  size: 169, 160
  orig: 1152, 648
  offset: 539, 243
  index: -1
animation(1)/animation/run/run_+45/run_+45.021
  rotate: false
  xy: 173, 715
  size: 165, 160
  orig: 1152, 648
  offset: 538, 243
  index: -1
animation(1)/animation/run/run_+45/run_+45.023
  rotate: false
  xy: 1872, 511
  size: 171, 164
  orig: 1152, 648
  offset: 535, 239
  index: -1
animation(1)/animation/run/run_-45/run_-45.003
  rotate: false
  xy: 370, 538
  size: 195, 161
  orig: 1152, 648
  offset: 494, 241
  index: -1
animation(1)/animation/run/run_-45/run_-45.005
  rotate: false
  xy: 1053, 690
  size: 190, 160
  orig: 1152, 648
  offset: 496, 244
  index: -1
animation(1)/animation/run/run_-45/run_-45.007
  rotate: false
  xy: 1452, 1323
  size: 182, 155
  orig: 1152, 648
  offset: 499, 246
  index: -1
animation(1)/animation/run/run_-45/run_-45.009
  rotate: false
  xy: 340, 712
  size: 175, 160
  orig: 1152, 648
  offset: 501, 244
  index: -1
animation(1)/animation/run/run_-45/run_-45.011
  rotate: false
  xy: 1841, 1002
  size: 175, 159
  orig: 1152, 648
  offset: 502, 244
  index: -1
animation(1)/animation/run/run_-45/run_-45.013
  rotate: false
  xy: 170, 1364
  size: 178, 152
  orig: 1152, 648
  offset: 502, 246
  index: -1
animation(1)/animation/run/run_-45/run_-45.015
  rotate: false
  xy: 1074, 1332
  size: 186, 153
  orig: 1152, 648
  offset: 501, 245
  index: -1
animation(1)/animation/run/run_-45/run_-45.017
  rotate: false
  xy: 1636, 1323
  size: 198, 155
  orig: 1152, 648
  offset: 499, 243
  index: -1
animation(1)/animation/run/run_B/run_B.001
  rotate: true
  xy: 487, 1922
  size: 107, 171
  orig: 1152, 648
  offset: 524, 230
  index: -1
animation(1)/animation/run/run_B/run_B.003
  rotate: true
  xy: 660, 1921
  size: 108, 172
  orig: 1152, 648
  offset: 528, 228
  index: -1
animation(1)/animation/run/run_B/run_B.009
  rotate: true
  xy: 1161, 1915
  size: 114, 168
  orig: 1152, 648
  offset: 526, 233
  index: -1
animation(1)/animation/run/run_B/run_B.017
  rotate: true
  xy: 322, 1803
  size: 117, 166
  orig: 1152, 648
  offset: 518, 234
  index: -1
animation(1)/animation/run/run_B/run_B.023
  rotate: true
  xy: 834, 1917
  size: 112, 169
  orig: 1152, 648
  offset: 519, 232
  index: -1
animation(1)/animation/run/run_F/run_F.001
  rotate: true
  xy: 2, 1928
  size: 101, 160
  orig: 1152, 648
  offset: 514, 243
  index: -1
animation(1)/animation/run/run_F/run_F.003
  rotate: true
  xy: 164, 1927
  size: 102, 159
  orig: 1152, 648
  offset: 515, 245
  index: -1
animation(1)/animation/run/run_F/run_F.005
  rotate: true
  xy: 325, 1923
  size: 106, 160
  orig: 1152, 648
  offset: 514, 244
  index: -1
animation(1)/animation/run/run_F/run_F.011
  rotate: true
  xy: 1805, 1914
  size: 115, 166
  orig: 1152, 648
  offset: 512, 241
  index: -1
animation(1)/animation/run/run_F/run_F.013
  rotate: true
  xy: 161, 1809
  size: 116, 159
  orig: 1152, 648
  offset: 512, 244
  index: -1
animation(1)/animation/run/run_F/run_F.015
  rotate: true
  xy: 2, 1811
  size: 115, 157
  orig: 1152, 648
  offset: 512, 242
  index: -1
animation(1)/animation/run/run_F/run_F.017
  rotate: true
  xy: 1005, 1917
  size: 112, 154
  orig: 1152, 648
  offset: 513, 245
  index: -1
animation(1)/animation/run/run_L R/run_L R.009
  rotate: false
  xy: 1438, 678
  size: 201, 160
  orig: 1152, 648
  offset: 518, 241
  index: -1
animation(1)/animation/run/run_L R/run_L R.011
  rotate: false
  xy: 328, 1039
  size: 197, 158
  orig: 1152, 648
  offset: 520, 243
  index: -1
animation(1)/animation/skill_b/skill_b.003
  rotate: false
  xy: 951, 526
  size: 190, 162
  orig: 1152, 648
  offset: 517, 235
  index: -1
animation(1)/animation/skill_b/skill_b.005
  rotate: true
  xy: 2, 1368
  size: 155, 166
  orig: 1152, 648
  offset: 528, 232
  index: -1
animation(1)/animation/skill_b/skill_b.007
  rotate: false
  xy: 1459, 176
  size: 182, 167
  orig: 1152, 648
  offset: 516, 230
  index: -1
animation(1)/animation/skill_b/skill_b.009
  rotate: false
  xy: 370, 30
  size: 185, 168
  orig: 1152, 648
  offset: 507, 228
  index: -1
animation(1)/animation/skill_b/skill_b.011
  rotate: false
  xy: 1457, 4
  size: 178, 170
  orig: 1152, 648
  offset: 502, 226
  index: -1
animation(1)/animation/skill_b/skill_b.013
  rotate: true
  xy: 685, 697
  size: 162, 175
  orig: 1152, 648
  offset: 507, 221
  index: -1
animation(1)/animation/skill_b/skill_b.015
  rotate: true
  xy: 999, 1641
  size: 137, 196
  orig: 1152, 648
  offset: 526, 200
  index: -1
animation(1)/animation/skill_b/skill_b.017
  rotate: true
  xy: 1384, 1636
  size: 139, 201
  orig: 1152, 648
  offset: 525, 196
  index: -1
animation(1)/animation/skill_b/skill_b.019
  rotate: true
  xy: 567, 534
  size: 161, 192
  orig: 1152, 648
  offset: 526, 209
  index: -1
animation(1)/animation/skill_b/skill_b.023
  rotate: true
  xy: 2, 1209
  size: 157, 163
  orig: 1152, 648
  offset: 517, 248
  index: -1
animation(1)/animation/skill_b/skill_b.027
  rotate: false
  xy: 1760, 1480
  size: 197, 151
  orig: 1152, 648
  offset: 471, 255
  index: -1
animation(1)/animation/skill_b/skill_b.029
  rotate: false
  xy: 538, 1187
  size: 167, 157
  orig: 1152, 648
  offset: 518, 252
  index: -1
animation(1)/animation/skill_b/skill_b.031
  rotate: false
  xy: 2, 1049
  size: 159, 158
  orig: 1152, 648
  offset: 515, 252
  index: -1
animation(1)/animation/skill_b/skill_b.033
  rotate: false
  xy: 1143, 521
  size: 175, 162
  orig: 1152, 648
  offset: 504, 257
  index: -1
animation(1)/animation/skill_b/skill_b.035
  rotate: false
  xy: 732, 22
  size: 177, 169
  orig: 1152, 648
  offset: 508, 248
  index: -1
animation(1)/animation/skill_b/skill_b.039
  rotate: false
  xy: 378, 200
  size: 178, 166
  orig: 1152, 648
  offset: 526, 253
  index: -1
animation(1)/animation/skill_b/skill_b.043
  rotate: false
  xy: 1637, 2
  size: 174, 170
  orig: 1152, 648
  offset: 519, 253
  index: -1
animation(1)/animation/skill_b/skill_b.045
  rotate: false
  xy: 911, 20
  size: 176, 169
  orig: 1152, 648
  offset: 513, 248
  index: -1
animation(1)/animation/skill_b/skill_b.047
  rotate: true
  xy: 1288, 177
  size: 167, 169
  orig: 1152, 648
  offset: 513, 238
  index: -1
animation(1)/animation/skill_b/skill_b.051
  rotate: false
  xy: 1814, 174
  size: 183, 167
  orig: 1152, 648
  offset: 520, 221
  index: -1
animation(1)/animation/skill_b/skill_b.059
  rotate: false
  xy: 1813, 2
  size: 191, 170
  orig: 1152, 648
  offset: 493, 254
  index: -1
animation(1)/animation/skill_b/skill_b.061
  rotate: false
  xy: 558, 200
  size: 176, 166
  orig: 1152, 648
  offset: 500, 257
  index: -1
animation(1)/animation/skill_b/skill_b.063
  rotate: true
  xy: 318, 1663
  size: 138, 169
  orig: 1152, 648
  offset: 501, 257
  index: -1
animation(1)/animation/skill_b/skill_b.069
  rotate: false
  xy: 1262, 1329
  size: 188, 153
  orig: 1152, 648
  offset: 497, 247
  index: -1
animation(1)/animation/skill_c/skill_c.001
  rotate: false
  xy: 1054, 1014
  size: 196, 158
  orig: 1152, 648
  offset: 508, 236
  index: -1
animation(1)/animation/skill_c/skill_c.007
  rotate: false
  xy: 1836, 1323
  size: 194, 155
  orig: 1152, 648
  offset: 527, 239
  index: -1
animation(1)/animation/skill_c/skill_c.008
  rotate: false
  xy: 1510, 512
  size: 187, 163
  orig: 1152, 648
  offset: 525, 231
  index: -1
animation(1)/animation/skill_c/skill_c.013
  rotate: false
  xy: 795, 1647
  size: 202, 136
  orig: 1152, 648
  offset: 439, 235
  index: -1
animation(1)/animation/skill_c/skill_c.016
  rotate: false
  xy: 1294, 1778
  size: 181, 134
  orig: 1152, 648
  offset: 428, 243
  index: -1
animation(1)/animation/skill_c/skill_c.018
  rotate: false
  xy: 2, 1525
  size: 167, 142
  orig: 1152, 648
  offset: 497, 247
  index: -1
animation(1)/animation/skill_c/skill_c.020
  rotate: false
  xy: 1273, 1485
  size: 163, 149
  orig: 1152, 648
  offset: 491, 246
  index: -1
animation(1)/animation/skill_c/skill_c.022
  rotate: false
  xy: 1745, 1633
  size: 174, 141
  orig: 1152, 648
  offset: 473, 250
  index: -1
animation(1)/animation/skill_c/skill_c.024
  rotate: false
  xy: 812, 1788
  size: 164, 127
  orig: 1152, 648
  offset: 487, 246
  index: -1
animation(1)/animation/skill_c/skill_c.036
  rotate: true
  xy: 350, 1357
  size: 152, 192
  orig: 1152, 648
  offset: 508, 188
  index: -1
animation(1)/animation/skill_c/skill_c.038
  rotate: false
  xy: 171, 1518
  size: 192, 143
  orig: 1152, 648
  offset: 505, 243
  index: -1
animation(1)/animation/skill_c/skill_c.048
  rotate: false
  xy: 914, 191
  size: 183, 166
  orig: 1152, 648
  offset: 538, 245
  index: -1
animation(1)/animation/skill_c/skill_c.050
  rotate: false
  xy: 1089, 15
  size: 192, 168
  orig: 1152, 648
  offset: 530, 237
  index: -1
animation(1)/animation/skill_c/skill_c.056
  rotate: false
  xy: 167, 1206
  size: 179, 156
  orig: 1152, 648
  offset: 528, 230
  index: -1
animation(1)/animation/win/win.005
  rotate: false
  xy: 2, 884
  size: 179, 159
  orig: 1152, 648
  offset: 524, 233
  index: -1
animation(1)/animation/win/win.007
  rotate: false
  xy: 1650, 344
  size: 172, 165
  orig: 1152, 648
  offset: 528, 229
  index: -1
animation(1)/animation/win/win.013
  rotate: false
  xy: 721, 1498
  size: 197, 147
  orig: 1152, 648
  offset: 518, 236
  index: -1
animation(1)/animation/win/win.021
  rotate: false
  xy: 2, 557
  size: 168, 163
  orig: 1152, 648
  offset: 492, 230
  index: -1
animation(1)/animation/win/win.025
  rotate: false
  xy: 2, 46
  size: 180, 167
  orig: 1152, 648
  offset: 502, 250
  index: -1
animation(1)/animation/win/win.027
  rotate: true
  xy: 920, 1492
  size: 147, 171
  orig: 1152, 648
  offset: 505, 248
  index: -1
animation(1)/animation/win/win.029
  rotate: true
  xy: 1438, 1484
  size: 149, 165
  orig: 1152, 648
  offset: 498, 242
  index: -1
animation(1)/animation/win/win.031
  rotate: false
  xy: 544, 1346
  size: 163, 155
  orig: 1152, 648
  offset: 489, 239
  index: -1
animation(1)/animation/win/win.033
  rotate: false
  xy: 707, 1184
  size: 179, 157
  orig: 1152, 648
  offset: 488, 238
  index: -1
animation(1)/animation/win/win.035
  rotate: false
  xy: 888, 1178
  size: 180, 157
  orig: 1152, 648
  offset: 508, 238
  index: -1

skeleton3.png
size: 1024,256
format: RGBA8888
filter: Linear,Linear
repeat: none
animation(1)/animation/hit/hit.007
  rotate: false
  xy: 374, 4
  size: 180, 171
  orig: 1152, 648
  offset: 533, 242
  index: -1
animation(1)/animation/hit/hit.009
  rotate: false
  xy: 193, 2
  size: 179, 173
  orig: 1152, 648
  offset: 523, 247
  index: -1
animation(1)/animation/skill_b/skill_b.037
  rotate: false
  xy: 2, 2
  size: 189, 173
  orig: 1152, 648
  offset: 509, 241
  index: -1
animation(1)/animation/skill_b/skill_b.053
  rotate: false
  xy: 556, 2
  size: 175, 173
  orig: 1152, 648
  offset: 499, 242
  index: -1
