{
	"1": {
		"hitRate": 1.0, "attackSpeed": 250, "MP_Max": 100, "treatmentStrength": 40, "toughness": 0, "vitality": 2, "HP_Max": 760, "magicPower": 280, "physicsDefense": 40, "critRate": 0.01,
		 "dodge": 0, "MP": 0, "school": 1, "crit": 0, "hit": 0, "HP": 760, "magicDefense": 40, "gengu": 1, "force": 4, "physicsPower": 280, "spirituality": 1, "skills": [901001, 902001,
		 903001, 904001, 905001]
	},
	"2": {
		"hitRate": 1.0, "attackSpeed": 250, "MP_Max": 100, "treatmentStrength": 40, "toughness": 0, "vitality": 3, "HP_Max": 760, "magicPower": 280, "physicsDefense": 40, "critRate": 0.01,
		 "dodge": 0, "MP": 0, "school": 2, "crit": 0, "hit": 0, "HP": 760, "magicDefense": 40, "gengu": 1, "force": 3, "physicsPower": 280, "spirituality": 1, "skills": [2001001, 2002001,
		 2003001, 2004001, 2005001, 2006001, 2007001]
	},
	"3": {
		"hitRate": 1.0, "attackSpeed": 250, "MP_Max": 100, "treatmentStrength": 40, "toughness": 0, "vitality": 2, "HP_Max": 760, "magicPower": 280, "physicsDefense": 40, "critRate": 0.01,
		 "dodge": 0, "MP": 0, "school": 3, "crit": 0, "hit": 0, "HP": 760, "magicDefense": 40, "gengu": 1, "force": 1, "physicsPower": 280, "spirituality": 4, "skills": [4001001, 4002001,
		 4003001, 4004001, 4005001, 4006001, 4007001]
	},
	"4": {
		"hitRate": 1.0, "attackSpeed": 250, "MP_Max": 100, "treatmentStrength": 40, "toughness": 0, "vitality": 2, "HP_Max": 760, "magicPower": 280, "physicsDefense": 40, "critRate": 0.01,
		 "dodge": 0, "MP": 0, "school": 4, "crit": 0, "hit": 0, "HP": 760, "magicDefense": 40, "gengu": 2, "force": 1, "physicsPower": 280, "spirituality": 3, "skills": [1001001, 1002001,
		 1003001, 1004001, 1005001]
	},
	"5": {
		"hitRate": 1.0, "attackSpeed": 250, "MP_Max": 100, "treatmentStrength": 40, "toughness": 0, "vitality": 2, "HP_Max": 760, "magicPower": 280, "physicsDefense": 40, "critRate": 0.01,
		 "dodge": 0, "MP": 0, "school": 5, "crit": 0, "hit": 0, "HP": 760, "magicDefense": 40, "gengu": 1, "force": 4, "physicsPower": 280, "spirituality": 1, "skills": [6001001, 6002001,
		 6003001, 6004001, 6005001, 6006001, 6007001]
	},
	"6": {
		"hitRate": 1.0, "attackSpeed": 250, "MP_Max": 100, "treatmentStrength": 40, "toughness": 0, "vitality": 2, "HP_Max": 760, "magicPower": 280, "physicsDefense": 40, "critRate": 0.01,
		 "dodge": 0, "MP": 0, "school": 6, "crit": 0, "hit": 0, "HP": 760, "magicDefense": 40, "gengu": 1, "force": 1, "physicsPower": 280, "spirituality": 4, "skills": [1001001, 1002001,
		 1003001, 1004001, 1005001]
	}
	
}
