{
    "1": {
        "EXP": 100
    },
    "2": {
        "EXP": 200
    },
    "3": {
        "EXP": 500
    },
    "4": {
        "EXP": 1000
    },
    "5": {
        "EXP": 1700
    },
    "6": {
        "EXP": 2600
    },
    "7": {
        "EXP": 3700
    },
    "8": {
        "EXP": 5000
    },
    "9": {
        "EXP": 6500
    },
    "10": {
        "EXP": 8200
    },
    "11": {
        "EXP": 16300
    },
    "12": {
        "EXP": 25200
    },
    "13": {
        "EXP": 34900
    },
    "14": {
        "EXP": 45400
    },
    "15": {
        "EXP": 56700
    },
    "16": {
        "EXP": 68800
    },
    "17": {
        "EXP": 81700
    },
    "18": {
        "EXP": 95400
    },
    "19": {
        "EXP": 109900
    },
    "20": {
        "EXP": 125200
    },
    "21": {
        "EXP": 149500
    },
    "22": {
        "EXP": 175000
    },
    "23": {
        "EXP": 201700
    },
    "24": {
        "EXP": 229600
    },
    "25": {
        "EXP": 258700
    },
    "26": {
        "EXP": 289000
    },
    "27": {
        "EXP": 320500
    },
    "28": {
        "EXP": 353200
    },
    "29": {
        "EXP": 387100
    },
    "30": {
        "EXP": 422200
    },
    "31": {
        "EXP": 580500
    },
    "32": {
        "EXP": 744000
    },
    "33": {
        "EXP": 912700
    },
    "34": {
        "EXP": 1086600
    },
    "35": {
        "EXP": 1265700
    },
    "36": {
        "EXP": 1450000
    },
    "37": {
        "EXP": 1639500
    },
    "38": {
        "EXP": 1834200
    },
    "39": {
        "EXP": 2034100
    },
    "40": {
        "EXP": 2239200
    },
    "41": {
        "EXP": 2805900
    },
    "42": {
        "EXP": 3386600
    },
    "43": {
        "EXP": 3981300
    },
    "44": {
        "EXP": 4590000
    },
    "45": {
        "EXP": 5212700
    },
    "46": {
        "EXP": 5849400
    },
    "47": {
        "EXP": 6500100
    },
    "48": {
        "EXP": 7164800
    },
    "49": {
        "EXP": 7843500
    },
    "50": {
        "EXP": 8536200
    },
    "51": {
        "EXP": 9990300
    },
    "52": {
        "EXP": 11473200
    },
    "53": {
        "EXP": 12984900
    },
    "54": {
        "EXP": 14525400
    },
    "55": {
        "EXP": 16094700
    },
    "56": {
        "EXP": 17692800
    },
    "57": {
        "EXP": 19319700
    },
    "58": {
        "EXP": 20975400
    },
    "59": {
        "EXP": 22659900
    },
    "60": {
        "EXP": 24373200
    },
    "61": {
        "EXP": 27446300
    },
    "62": {
        "EXP": 30570200
    },
    "63": {
        "EXP": 33744900
    },
    "64": {
        "EXP": 36970400
    },
    "65": {
        "EXP": 40246700
    },
    "66": {
        "EXP": 43573800
    },
    "67": {
        "EXP": 46951700
    },
    "68": {
        "EXP": 50380400
    },
    "69": {
        "EXP": 53859900
    },
    "70": {
        "EXP": 57390200
    },
    "71": {
        "EXP": 63114500
    },
    "72": {
        "EXP": 68920000
    },
    "73": {
        "EXP": 74806700
    },
    "74": {
        "EXP": 80774600
    },
    "75": {
        "EXP": 86823700
    },
    "76": {
        "EXP": 92954000
    },
    "77": {
        "EXP": 99165500
    },
    "78": {
        "EXP": 105458200
    },
    "79": {
        "EXP": 111832100
    },
    "80": {
        "EXP": 118287200
    }
}