{
	"1": [{
		"item": 1,
		"itemPercent": 100,
		"boxID": 1,
		"boxType": 0,
		"itemCount": 2
	}, {
		"item": 2,
		"itemPercent": 100,
		"boxID": 1,
		"boxType": 0,
		"itemCount": 2
	}, {
		"item": 3,
		"itemPercent": 30,
		"boxID": 1,
		"boxType": 0,
		"itemCount": 2
	}],
	"2": [{
		"item": 1,
		"itemPercent": 100,
		"boxID": 2,
		"boxType": 0,
		"itemCount": 2
	}, {
		"item": 2,
		"itemPercent": 30,
		"boxID": 2,
		"boxType": 0,
		"itemCount": 2
	}],
	"3": [{
		"item": 1,
		"itemPercent": 100,
		"boxID": 3,
		"boxType": 0,
		"itemCount": 2
	}],
	"4": [{
		"item": 0,
		"itemPercent": 50,
		"boxID": 4,
		"boxType": 1,
		"itemCount": 100
	}, {
		"item": 1,
		"itemPercent": 10,
		"boxID": 4,
		"boxType": 1,
		"itemCount": 2
	}, {
		"item": 2,
		"itemPercent": 10,
		"boxID": 4,
		"boxType": 1,
		"itemCount": 2
	}, {
		"item": 3,
		"itemPercent": 20,
		"boxID": 4,
		"boxType": 1,
		"itemCount": 2
	}]
}