﻿
{
    "30027" : {
        "id" : 30027,
        "localPosition" : {
            "x" : 0.11,
            "y" : 2.81
        }
    },
    "30048" : {
        "id" : 30048,
        "localPosition" : {
            "x" : -3.53,
            "y" : 2.73
        }
    },
    "30049" : {
        "id" : 30049,
        "localPosition" : {
            "x" : 5.47,
            "y" : 4.69
        }
    },
    "30050" : {
        "id" : 30050,
        "localPosition" : {
            "x" : 8.13,
            "y" : 3.47
        }
    },
    "30051" : {
        "id" : 30051,
        "localPosition" : {
            "x" : 11.04,
            "y" : 0.2
        }
    },
    "30036" : {
        "id" : 30036,
        "localPosition" : {
            "x" : 8.71,
            "y" : -2.58
        }
    },
    "30037" : {
        "id" : 30037,
        "localPosition" : {
            "x" : 5.11,
            "y" : -7.08
        }
    },
    "30038" : {
        "id" : 30038,
        "localPosition" : {
            "x" : 1.63,
            "y" : -7.04
        }
    },
    "30039" : {
        "id" : 30039,
        "localPosition" : {
            "x" : -0.65,
            "y" : -4.94
        }
    },
    "30040" : {
        "id" : 30040,
        "localPosition" : {
            "x" : -3.85,
            "y" : -3.76
        }
    },
    "30041" : {
        "id" : 30041,
        "localPosition" : {
            "x" : -4.87,
            "y" : -6.42
        }
    },
    "30042" : {
        "id" : 30042,
        "localPosition" : {
            "x" : -8.43,
            "y" : -4.66
        }
    },
    "30043" : {
        "id" : 30043,
        "localPosition" : {
            "x" : -9.99,
            "y" : -1.71
        }
    },
    "30044" : {
        "id" : 30044,
        "localPosition" : {
            "x" : -7.08,
            "y" : 1.61
        }
    },
    "30045" : {
        "id" : 30045,
        "localPosition" : {
            "x" : -9.78,
            "y" : 1.28
        }
    },
    "30046" : {
        "id" : 30046,
        "localPosition" : {
            "x" : -9.17,
            "y" : 3.33
        }
    },
    "30047" : {
        "id" : 30047,
        "localPosition" : {
            "x" : -10.68,
            "y" : 4.03
        }
    },
    "30032" : {
        "id" : 30032,
        "localPosition" : {
            "x" : 2.31,
            "y" : 3.42
        }
    },
    "30033" : {
        "id" : 30033,
        "localPosition" : {
            "x" : 0.15,
            "y" : 4.53
        }
    },
    "83004" : {
        "id" : 83004,
        "localPosition" : {
            "x" : 6.96,
            "y" : -4.58
        }
    },
    "83005" : {
        "id" : 83005,
        "localPosition" : {
            "x" : -8.83,
            "y" : -2.97
        }
    },
    "82003" : {
        "id" : 82003,
        "localPosition" : {
            "x" : -7.53,
            "y" : -2.23
        }
    },
    "11000002" : {
        "id" : 11000002,
        "localPosition" : {
            "x" : -6.18,
            "y" : -3.25
        }
    }
}