﻿
{
    "30059" : {
        "id" : 30059,
        "localPosition" : {
            "x" : -7.0,
            "y" : 1.39
        }
    },
    "30053" : {
        "id" : 30053,
        "localPosition" : {
            "x" : 9.6,
            "y" : 6.54
        }
    },
    "30002" : {
        "id" : 30002,
        "localPosition" : {
            "x" : 1.19,
            "y" : 5.49
        }
    },
    "30005" : {
        "id" : 30005,
        "localPosition" : {
            "x" : -7.19,
            "y" : 5.95
        }
    }
}