﻿
{
    "81016" : {
        "id" : 81016,
        "localPosition" : {
            "x" : 0.13,
            "y" : -0.85
        }
    },
    "81034" : {
        "id" : 81034,
        "localPosition" : {
            "x" : -2.65,
            "y" : 0.22
        }
    }
}