﻿
{
    "buff_recovery" : {
        "seqName" : "buff_recovery",
        "effectNames" : [
        ]
    },
    "debuff_bleed"  : {
        "seqName" : "debuff_bleed",
        "effectNames" : [
            "fx_baodian"
        ]
    },
    "seq_diancangpai_a" : {
        "seqName" : "seq_diancangpai_a",
        "effectNames" : [
            "fx_dianchuangpai_attack",
            "fx_dianchuangpai_attack_hit"
        ]
    },
    "seq_diancangpai_b" : {
        "seqName" : "seq_diancangpai_b",
        "effectNames" : [
            "fx_dianchuangpai_skill_dpzc",
            "fx_shanguang",
            "fx_baodian"
        ]
    },
    "seq_diancangpai_c" : {
        "seqName" : "seq_diancangpai_c",
        "effectNames" : [
            "fx_dianchuangpai_skill_cxkz",
            "fx_shanguang"
        ]
    },
    "seq_diancangpai_e" : {
        "seqName" : "seq_diancangpai_e",
        "effectNames" : [
            "fx_dianchuangpai_skill_lxgy",
            "fx_shanguang"
        ]
    },
    "seq_diancangpai_g" : {
        "seqName" : "seq_diancangpai_g",
        "effectNames" : [
            "fx_dianchuangpai_skill_yzqk",
            "fx_shanguang"
        ]
    },
    "seq_dianchuangpai_xuli" : {
        "seqName" : "seq_dianchuangpai_xuli",
        "effectNames" : [
            "fx_zhunbeizhong"
        ]
    },
    "seq_jiuhuashan_a"       : {
        "seqName" : "seq_jiuhuashan_a",
        "effectNames" : [
            "fx_jiuhuashan_attack"
        ]
    },
    "seq_jiuhuashan_b_1"     : {
        "seqName" : "seq_jiuhuashan_b_1",
        "effectNames" : [
            "fx_jiuhuashan_skilla_1"
        ]
    },
    "seq_jiuhuashan_b_2"     : {
        "seqName" : "seq_jiuhuashan_b_2",
        "effectNames" : [
            "fx_jiuhuashan_skilla_2"
        ]
    },
    "seq_jiuhuashan_c"       : {
        "seqName" : "seq_jiuhuashan_c",
        "effectNames" : [
            "fx_jiuhuashan_skillb"
        ]
    },
    "seq_jiuhuashan_f"       : {
        "seqName" : "seq_jiuhuashan_f",
        "effectNames" : [
            "fx_jiuhuashan_skillf"
        ]
    },
    "seq_jiuhuashan_g"       : {
        "seqName" : "seq_jiuhuashan_g",
        "effectNames" : [
            "fx_jiuhuashan_skillf"
        ]
    },
    "seq_niumowang_a"        : {
        "seqName" : "seq_niumowang_a",
        "effectNames" : [
            "fx_niumowang_a"
        ]
    },
    "seq_niumowang_demo_a"   : {
        "seqName" : "seq_niumowang_demo_a",
        "effectNames" : [
            "fx_shanguang",
            "fx_niumowang"
        ]
    },
    "seq_tianxinge_a"        : {
        "seqName" : "seq_tianxinge_a",
        "effectNames" : [
            "fx_tianxinge_att"
        ]
    },
    "seq_tianxinge_b"        : {
        "seqName" : "seq_tianxinge_b",
        "effectNames" : [
            "fx_tianxinge_skilla",
            "fx_shanguang",
            "fx_tianxinge_hit"
        ]
    },
    "seq_tianxinge_c"        : {
        "seqName" : "seq_tianxinge_c",
        "effectNames" : [
            "fx_shanguang",
            "fx_tianxinge_miaotiaoshunv"
        ]
    },
    "seq_tianxinge_d"        : {
        "seqName" : "seq_tianxinge_d",
        "effectNames" : [
            "fx_shanguang",
            "fx_tianxinge_skilld_a",
            "fx_tianxinge_skillc_a"
        ]
    },
    "seq_tianxinge_e"        : {
        "seqName" : "seq_tianxinge_e",
        "effectNames" : [
            "fx_shanguang",
            "fx_tianxinge_skilld_a",
            "fx_tianxinge_miaotiaoshunv"
        ]
    },
    "seq_tianxinge_xuli"     : {
        "seqName" : "seq_tianxinge_xuli",
        "effectNames" : [
            "fx_zhunbeizhong"
        ]
    },
    "seq_tongyongxuli"       : {
        "seqName" : "seq_tongyongxuli",
        "effectNames" : [
            "fx_zhunbeizhong"
        ]
    },
    "seq_xuanqinggong_demo_a" : {
        "seqName" : "seq_xuanqinggong_demo_a",
        "effectNames" : [
            "fx_xuanqinggong_attack"
        ]
    },
    "seq_xuanqinggong_demo_b" : {
        "seqName" : "seq_xuanqinggong_demo_b",
        "effectNames" : [
            "fx_xuanqinggong_skilla_b",
            "fx_tianxinge_hit",
            "fx_xuanqinggong_skilla"
        ]
    }
}