{
	"0": {
		"money": 0,
		"buyPhysical": 1,
		"number": 0,
		"icon": "font_vip0",
		"vipID": 0,
		"sweepTicket": 10,
		"description": "",
		"handofMidas": 1
	},
	"1": {
		"money": 1,
		"buyPhysical": 2,
		"number": 1,
		"icon": "font_vip1",
		"vipID": 1,
		"sweepTicket": 20,
		"description": "",
		"handofMidas": 5
	},
	"2": {
		"money": 10,
		"buyPhysical": 3,
		"number": 2,
		"icon": "font_vip2",
		"vipID": 2,
		"sweepTicket": 30,
		"description": "",
		"handofMidas": 20
	},
	"3": {
		"money": 30,
		"buyPhysical": 4,
		"number": 3,
		"icon": "font_vip3",
		"vipID": 3,
		"sweepTicket": 40,
		"description": "",
		"handofMidas": 30
	},
	"4": {
		"money": 50,
		"buyPhysical": 5,
		"number": 4,
		"icon": "font_vip4",
		"vipID": 4,
		"sweepTicket": 50,
		"description": "",
		"handofMidas": 40
	},
	"5": {
		"money": 100,
		"buyPhysical": 6,
		"number": 5,
		"icon": "font_vip5",
		"vipID": 5,
		"sweepTicket": 60,
		"description": "",
		"handofMidas": 50
	},
	"6": {
		"money": 200,
		"buyPhysical": 7,
		"number": 6,
		"icon": "font_vip6",
		"vipID": 6,
		"sweepTicket": 70,
		"description": "",
		"handofMidas": 60
	},
	"7": {
		"money": 300,
		"buyPhysical": 8,
		"number": 7,
		"icon": "font_vip7",
		"vipID": 7,
		"sweepTicket": 80,
		"description": "",
		"handofMidas": 70
	},
	"8": {
		"money": 500,
		"buyPhysical": 9,
		"number": 8,
		"icon": "font_vip8",
		"vipID": 8,
		"sweepTicket": 90,
		"description": "",
		"handofMidas": 80
	}
}