%YAML 1.1
%TAG !u! tag:unity3d.com,2011:
--- !u!114 &11400000
MonoBehaviour:
  m_ObjectHideFlags: 0
  m_PrefabParentObject: {fileID: 0}
  m_PrefabInternal: {fileID: 0}
  m_GameObject: {fileID: 0}
  m_Enabled: 1
  m_EditorHideFlags: 0
  m_Script: {fileID: 11500000, guid: f1b3b4b945939a54ea0b23d3396115fb, type: 3}
  m_Name: mumumao_SkeletonData
  m_EditorClassIdentifier: 
  atlasAssets:
  - {fileID: 11400000, guid: 3b1415f4d0a17284b94310711741a0f9, type: 2}
  skeletonJSON: {fileID: 4900000, guid: ecaa8d205c9e3ab41b380c46df9d3145, type: 3}
  scale: .00999999978
  fromAnimation: []
  toAnimation: []
  duration: []
  defaultMix: .200000003
  controller: {fileID: 9100000, guid: a3a8dc0520b143b42855907545fff1c3, type: 2}
