%YAML 1.1
%TAG !u! tag:unity3d.com,2011:
--- !u!1 &186614
GameObject:
  m_ObjectHideFlags: 0
  m_PrefabParentObject: {fileID: 0}
  m_PrefabInternal: {fileID: 100100000}
  serializedVersion: 4
  m_Component:
  - 4: {fileID: 449762}
  - 114: {fileID: 11413538}
  m_Layer: 0
  m_Name: Atlas_Login
  m_TagString: Untagged
  m_Icon: {fileID: 0}
  m_NavMeshLayer: 0
  m_StaticEditorFlags: 0
  m_IsActive: 1
--- !u!4 &449762
Transform:
  m_ObjectHideFlags: 1
  m_PrefabParentObject: {fileID: 0}
  m_PrefabInternal: {fileID: 100100000}
  m_GameObject: {fileID: 186614}
  m_LocalRotation: {x: 0, y: 0, z: 0, w: 1}
  m_LocalPosition: {x: 0, y: 0, z: 0}
  m_LocalScale: {x: 1, y: 1, z: 1}
  m_Children: []
  m_Father: {fileID: 0}
  m_RootOrder: 0
--- !u!114 &11413538
MonoBehaviour:
  m_ObjectHideFlags: 1
  m_PrefabParentObject: {fileID: 0}
  m_PrefabInternal: {fileID: 100100000}
  m_GameObject: {fileID: 186614}
  m_Enabled: 1
  m_EditorHideFlags: 0
  m_Script: {fileID: 11500000, guid: 4d0c51bb0b6e93049af5e88f93826e3b, type: 3}
  m_Name: 
  m_EditorClassIdentifier: 
  material: {fileID: 2100000, guid: afd01cba8a104c8489d875981e9c0ac8, type: 2}
  mSprites:
  - name: '[1-5]UI-s2-dl-beijingtu'
    x: 2
    y: 2
    width: 1334
    height: 750
    borderLeft: 0
    borderRight: 0
    borderTop: 0
    borderBottom: 0
    paddingLeft: 0
    paddingRight: 0
    paddingTop: 0
    paddingBottom: 0
  - name: '[1-5]UI-s2-dl-jindutu'
    x: 2
    y: 754
    width: 1334
    height: 750
    borderLeft: 0
    borderRight: 0
    borderTop: 0
    borderBottom: 0
    paddingLeft: 0
    paddingRight: 0
    paddingTop: 0
    paddingBottom: 0
  - name: '[6-10]UI-s2-dl-zhezhao'
    x: 1338
    y: 2
    width: 692
    height: 14
    borderLeft: 0
    borderRight: 0
    borderTop: 0
    borderBottom: 0
    paddingLeft: 0
    paddingRight: 0
    paddingTop: 0
    paddingBottom: 0
  mPixelSize: 1
  mReplacement: {fileID: 0}
  mCoordinates: 0
  sprites: []
--- !u!1001 &100100000
Prefab:
  m_ObjectHideFlags: 1
  serializedVersion: 2
  m_Modification:
    m_TransformParent: {fileID: 0}
    m_Modifications:
    - target: {fileID: 0}
      propertyPath: mSprites.Array.data[1].borderLeft
      value: 50
      objectReference: {fileID: 0}
    - target: {fileID: 0}
      propertyPath: mSprites.Array.data[1].borderRight
      value: 50
      objectReference: {fileID: 0}
    - target: {fileID: 0}
      propertyPath: mSprites.Array.data[1].borderBottom
      value: 40
      objectReference: {fileID: 0}
    - target: {fileID: 0}
      propertyPath: mSprites.Array.data[1].borderTop
      value: 40
      objectReference: {fileID: 0}
    - target: {fileID: 0}
      propertyPath: mSprites.Array.data[0].name
      value: '[1-5]UI-s2-dl-beijingtu'
      objectReference: {fileID: 0}
    - target: {fileID: 0}
      propertyPath: mSprites.Array.data[0].x
      value: 2
      objectReference: {fileID: 0}
    - target: {fileID: 0}
      propertyPath: mSprites.Array.data[0].y
      value: 2
      objectReference: {fileID: 0}
    - target: {fileID: 0}
      propertyPath: mSprites.Array.data[1].name
      value: '[1-5]UI-s2-dl-jindutu'
      objectReference: {fileID: 0}
    - target: {fileID: 0}
      propertyPath: mSprites.Array.data[1].x
      value: 2
      objectReference: {fileID: 0}
    - target: {fileID: 0}
      propertyPath: mSprites.Array.data[1].y
      value: 754
      objectReference: {fileID: 0}
    - target: {fileID: 0}
      propertyPath: mSprites.Array.data[2].name
      value: '[6-10]UI-s2-dl-zhezhao'
      objectReference: {fileID: 0}
    - target: {fileID: 0}
      propertyPath: mSprites.Array.data[2].x
      value: 1338
      objectReference: {fileID: 0}
    - target: {fileID: 0}
      propertyPath: mSprites.Array.data[2].y
      value: 2
      objectReference: {fileID: 0}
    m_RemovedComponents: []
  m_ParentPrefab: {fileID: 0}
  m_RootGameObject: {fileID: 186614}
  m_IsPrefabParent: 1
