%YAML 1.1
%TAG !u! tag:unity3d.com,2011:
--- !u!114 &11400000
MonoBehaviour:
  m_ObjectHideFlags: 0
  m_PrefabParentObject: {fileID: 0}
  m_PrefabInternal: {fileID: 0}
  m_GameObject: {fileID: 0}
  m_Enabled: 1
  m_EditorHideFlags: 0
  m_Script: {fileID: 11500000, guid: f1b3b4b945939a54ea0b23d3396115fb, type: 3}
  m_Name: mon_Xeny_SkeletonData
  m_EditorClassIdentifier: 
  atlasAssets:
  - {fileID: 11400000, guid: 3af43d0a986d9054a985f51c68132acf, type: 2}
  skeletonJSON: {fileID: 4900000, guid: acfb4128080529945b636bba393571b8, type: 3}
  scale: .00999999978
  fromAnimation: []
  toAnimation: []
  duration: []
  defaultMix: .200000003
  controller: {fileID: 9100000, guid: aa4d699ecfcbd1a4c8d4cd299567fd8d, type: 2}
