%YAML 1.1
%TAG !u! tag:unity3d.com,2011:
--- !u!114 &11400000
MonoBehaviour:
  m_ObjectHideFlags: 0
  m_PrefabParentObject: {fileID: 0}
  m_PrefabInternal: {fileID: 0}
  m_GameObject: {fileID: 0}
  m_Enabled: 1
  m_EditorHideFlags: 0
  m_Script: {fileID: 11500000, guid: f1b3b4b945939a54ea0b23d3396115fb, type: 3}
  m_Name: Yaoshi_SkeletonData
  m_EditorClassIdentifier: 
  atlasAssets:
  - {fileID: 11400000, guid: d2f6094bc44aed04e9440a6263a2d898, type: 2}
  skeletonJSON: {fileID: 4900000, guid: dae37463c753bea4292fada6643b74b8, type: 3}
  scale: .00999999978
  fromAnimation: []
  toAnimation: []
  duration: []
  defaultMix: .200000003
  controller: {fileID: 9100000, guid: 9d457dbad03bc794bbb93694f083a9a6, type: 2}
