{
"skeleton": { "hash": "EnlvSwjT+w7N/p12Ta2InGFgF6k", "spine": "2.1.27", "width": 1152, "height": 648, "images": "" },
"bones": [
	{ "name": "root", "scaleX": -1 },
	{ "name": "bone", "parent": "root", "y": 76.99 },
	{ "name": "bone2", "parent": "root", "y": -6, "scaleX": 0.66, "scaleY": 0.939 }
],
"slots": [
	{ "name": "001", "bone": "bone2", "color": "ffffff78", "attachment": "001" },
	{ "name": "attack/attack.001", "bone": "bone", "attachment": "prepare/prepare.023" }
],
"skins": {
	"default": {
		"001": {
			"001": { "width": 232, "height": 134 }
		},
		"attack/attack.001": {
			"attack/attack.001": { "width": 1152, "height": 648 },
			"attack/attack.003": { "width": 1152, "height": 648 },
			"attack/attack.005": { "width": 1152, "height": 648 },
			"attack/attack.007": { "width": 1152, "height": 648 },
			"attack/attack.009": { "width": 1152, "height": 648 },
			"attack/attack.011": { "width": 1152, "height": 648 },
			"attack/attack.013": { "width": 1152, "height": 648 },
			"attack/attack.015": { "width": 1152, "height": 648 },
			"attack/attack.017": { "width": 1152, "height": 648 },
			"attack/attack.019": { "width": 1152, "height": 648 },
			"attack/attack.021": { "width": 1152, "height": 648 },
			"attack/attack.023": { "width": 1152, "height": 648 },
			"attack/attack.025": { "width": 1152, "height": 648 },
			"attack/attack.027": { "width": 1152, "height": 648 },
			"attack/attack.029": { "width": 1152, "height": 648 },
			"attack/attack.031": { "width": 1152, "height": 648 },
			"attack/attack.033": { "width": 1152, "height": 648 },
			"attack/attack.035": { "width": 1152, "height": 648 },
			"dead/dead.001": { "width": 1152, "height": 648 },
			"dead/dead.003": { "width": 1152, "height": 648 },
			"dead/dead.005": { "width": 1152, "height": 648 },
			"dead/dead.007": { "width": 1152, "height": 648 },
			"dead/dead.009": { "width": 1152, "height": 648 },
			"dead/dead.011": { "width": 1152, "height": 648 },
			"dead/dead.013": { "width": 1152, "height": 648 },
			"dead/dead.015": { "width": 1152, "height": 648 },
			"dead/dead.017": { "width": 1152, "height": 648 },
			"dead/dead.019": { "width": 1152, "height": 648 },
			"dead/dead.021": { "width": 1152, "height": 648 },
			"dead/dead.023": { "width": 1152, "height": 648 },
			"dead/dead.025": { "width": 1152, "height": 648 },
			"dead/dead.027": { "width": 1152, "height": 648 },
			"dead/dead.029": { "width": 1152, "height": 648 },
			"dead/dead.031": { "width": 1152, "height": 648 },
			"hit/hit.001": { "width": 1152, "height": 648 },
			"hit/hit.003": { "width": 1152, "height": 648 },
			"hit/hit.005": { "width": 1152, "height": 648 },
			"hit/hit.007": { "width": 1152, "height": 648 },
			"hit/hit.009": { "width": 1152, "height": 648 },
			"hit/hit.011": { "width": 1152, "height": 648 },
			"hit/hit.013": { "width": 1152, "height": 648 },
			"hit/hit.015": { "width": 1152, "height": 648 },
			"prepare/prepare.001": { "width": 1152, "height": 648 },
			"prepare/prepare.003": { "width": 1152, "height": 648 },
			"prepare/prepare.005": { "width": 1152, "height": 648 },
			"prepare/prepare.007": { "width": 1152, "height": 648 },
			"prepare/prepare.009": { "width": 1152, "height": 648 },
			"prepare/prepare.011": { "width": 1152, "height": 648 },
			"prepare/prepare.013": { "width": 1152, "height": 648 },
			"prepare/prepare.015": { "width": 1152, "height": 648 },
			"prepare/prepare.017": { "width": 1152, "height": 648 },
			"prepare/prepare.019": { "width": 1152, "height": 648 },
			"prepare/prepare.021": { "width": 1152, "height": 648 },
			"prepare/prepare.023": { "width": 1152, "height": 648 }
		}
	}
},
"animations": {
	"Attack": {
		"slots": {
			"attack/attack.001": {
				"attachment": [
					{ "time": 0, "name": "attack/attack.001" },
					{ "time": 0.0666, "name": "attack/attack.003" },
					{ "time": 0.1333, "name": "attack/attack.005" },
					{ "time": 0.2, "name": "attack/attack.007" },
					{ "time": 0.2666, "name": "attack/attack.009" },
					{ "time": 0.3333, "name": "attack/attack.011" },
					{ "time": 0.4, "name": "attack/attack.013" },
					{ "time": 0.4666, "name": "attack/attack.015" },
					{ "time": 0.5333, "name": "attack/attack.017" },
					{ "time": 0.6, "name": "attack/attack.019" },
					{ "time": 0.6666, "name": "attack/attack.021" },
					{ "time": 0.7333, "name": "attack/attack.023" },
					{ "time": 0.8, "name": "attack/attack.025" },
					{ "time": 0.9, "name": "attack/attack.027" },
					{ "time": 1, "name": "attack/attack.029" },
					{ "time": 1.0666, "name": "attack/attack.031" },
					{ "time": 1.1333, "name": "attack/attack.033" },
					{ "time": 1.2, "name": "attack/attack.035" }
				]
			}
		},
		"bones": {
			"bone2": {
				"translate": [
					{ "time": 0, "x": 0, "y": 0 },
					{ "time": 0.0666, "x": -2, "y": 0 },
					{ "time": 1.2, "x": 0, "y": 0 }
				],
				"scale": [
					{ "time": 0, "x": 1, "y": 1 },
					{ "time": 0.0666, "x": 1.06, "y": 1 },
					{ "time": 0.1333, "x": 0.996, "y": 1 },
					{ "time": 0.2, "x": 0.976, "y": 1 },
					{ "time": 0.2666, "x": 0.927, "y": 1 },
					{ "time": 0.3333, "x": 0.955, "y": 1 },
					{ "time": 0.4, "x": 0.993, "y": 1 },
					{ "time": 0.4666, "x": 0.944, "y": 1 },
					{ "time": 0.5333, "x": 0.915, "y": 1 },
					{ "time": 0.6, "x": 0.934, "y": 1 },
					{ "time": 0.6666, "x": 0.896, "y": 1 },
					{ "time": 0.7333, "x": 0.869, "y": 1 },
					{ "time": 0.8, "x": 0.904, "y": 1 },
					{ "time": 0.9, "x": 0.94, "y": 1 },
					{ "time": 1, "x": 0.978, "y": 1 },
					{ "time": 1.0666, "x": 0.939, "y": 1 },
					{ "time": 1.1333, "x": 0.929, "y": 1 },
					{ "time": 1.2, "x": 1, "y": 1 }
				]
			}
		}
	},
	"Dead": {
		"slots": {
			"attack/attack.001": {
				"attachment": [
					{ "time": 0, "name": "dead/dead.001" },
					{ "time": 0.0666, "name": "dead/dead.003" },
					{ "time": 0.1333, "name": "dead/dead.005" },
					{ "time": 0.2, "name": "dead/dead.007" },
					{ "time": 0.2666, "name": "dead/dead.009" },
					{ "time": 0.3333, "name": "dead/dead.011" },
					{ "time": 0.4, "name": "dead/dead.013" },
					{ "time": 0.4666, "name": "dead/dead.015" },
					{ "time": 0.5333, "name": "dead/dead.017" },
					{ "time": 0.6, "name": "dead/dead.019" },
					{ "time": 0.6666, "name": "dead/dead.021" },
					{ "time": 0.7333, "name": "dead/dead.023" },
					{ "time": 0.8, "name": "dead/dead.025" },
					{ "time": 0.8666, "name": "dead/dead.027" },
					{ "time": 0.9333, "name": "dead/dead.029" },
					{ "time": 1, "name": "dead/dead.031" }
				]
			}
		},
		"bones": {
			"bone2": {
				"translate": [
					{ "time": 0, "x": 0, "y": 0 },
					{ "time": 0.1333, "x": -10.34, "y": 0, "curve": "stepped" },
					{ "time": 0.2, "x": -10.34, "y": 0 },
					{ "time": 0.3333, "x": -2.29, "y": 0 },
					{ "time": 0.4, "x": 5.74, "y": 0 },
					{ "time": 0.4666, "x": 37.91, "y": 0 },
					{ "time": 0.5333, "x": 39.06, "y": 0 },
					{ "time": 0.6, "x": 41.36, "y": 0 }
				],
				"scale": [
					{ "time": 0, "x": 1, "y": 1 },
					{ "time": 0.0666, "x": 1.16, "y": 1 },
					{ "time": 0.1333, "x": 1.24, "y": 1, "curve": "stepped" },
					{ "time": 0.2, "x": 1.24, "y": 1 },
					{ "time": 0.2666, "x": 1.297, "y": 1 },
					{ "time": 0.4666, "x": 1.536, "y": 1 },
					{ "time": 0.5333, "x": 1.677, "y": 1 }
				]
			}
		}
	},
	"Hit": {
		"slots": {
			"attack/attack.001": {
				"attachment": [
					{ "time": 0, "name": "hit/hit.001" },
					{ "time": 0.0666, "name": "hit/hit.003" },
					{ "time": 0.1333, "name": "hit/hit.005" },
					{ "time": 0.2, "name": "hit/hit.007" },
					{ "time": 0.2666, "name": "hit/hit.009" },
					{ "time": 0.3333, "name": "hit/hit.011" },
					{ "time": 0.4, "name": "hit/hit.013" },
					{ "time": 0.4666, "name": "hit/hit.015" }
				]
			}
		},
		"bones": {
			"bone2": {
				"translate": [
					{ "time": 0, "x": 0, "y": 0 },
					{ "time": 0.0666, "x": -22.97, "y": 0 },
					{ "time": 0.1333, "x": -26.42, "y": 0 },
					{ "time": 0.2, "x": -28.72, "y": 0 },
					{ "time": 0.2666, "x": -21.83, "y": 0 },
					{ "time": 0.3333, "x": -13.78, "y": 0 },
					{ "time": 0.4, "x": -9.19, "y": 0 },
					{ "time": 0.4666, "x": 0, "y": 0 }
				],
				"scale": [
					{ "time": 0, "x": 1, "y": 1, "curve": "stepped" },
					{ "time": 0.4666, "x": 1, "y": 1 }
				]
			}
		}
	},
	"Prepare": {
		"slots": {
			"attack/attack.001": {
				"attachment": [
					{ "time": 0, "name": "prepare/prepare.001" },
					{ "time": 0.0666, "name": "prepare/prepare.003" },
					{ "time": 0.1333, "name": "prepare/prepare.005" },
					{ "time": 0.2, "name": "prepare/prepare.007" },
					{ "time": 0.2666, "name": "prepare/prepare.009" },
					{ "time": 0.3333, "name": "prepare/prepare.011" },
					{ "time": 0.4, "name": "prepare/prepare.013" },
					{ "time": 0.4666, "name": "prepare/prepare.015" },
					{ "time": 0.5333, "name": "prepare/prepare.017" },
					{ "time": 0.6, "name": "prepare/prepare.019" },
					{ "time": 0.6666, "name": "prepare/prepare.021" },
					{ "time": 0.7333, "name": "prepare/prepare.023" }
				]
			}
		},
		"bones": {
			"bone2": {
				"translate": [
					{ "time": 0, "x": 0, "y": 0, "curve": "stepped" },
					{ "time": 0.7333, "x": 0, "y": 0 }
				],
				"scale": [
					{ "time": 0, "x": 1, "y": 1 },
					{ "time": 0.4, "x": 1.114, "y": 1 },
					{ "time": 0.7333, "x": 1, "y": 1 }
				]
			}
		}
	}
}
}