%YAML 1.1
%TAG !u! tag:unity3d.com,2011:
--- !u!114 &11400000
MonoBehaviour:
  m_ObjectHideFlags: 0
  m_PrefabParentObject: {fileID: 0}
  m_PrefabInternal: {fileID: 0}
  m_GameObject: {fileID: 0}
  m_Enabled: 1
  m_EditorHideFlags: 0
  m_Script: {fileID: 11500000, guid: f1b3b4b945939a54ea0b23d3396115fb, type: 3}
  m_Name: QianQian_SkeletonData
  m_EditorClassIdentifier: 
  atlasAssets:
  - {fileID: 11400000, guid: 1099eff51281625458db5e8efb61eb21, type: 2}
  skeletonJSON: {fileID: 4900000, guid: 8870f9cca1a7a3246b808e42d93154fa, type: 3}
  scale: .00999999978
  fromAnimation: []
  toAnimation: []
  duration: []
  defaultMix: .200000003
  controller: {fileID: 0}
