{
"skeleton": { "hash": "Zyjqt9cYdjwUzYpz9e3apQwpl3w", "spine": "2.1.27", "width": 1152, "height": 648, "images": "" },
"bones": [
	{ "name": "root" },
	{ "name": "bone", "parent": "root", "y": 70 },
	{ "name": "bone2", "parent": "root" }
],
"slots": [
	{ "name": "001", "bone": "bone2", "attachment": "001" },
	{ "name": "idel/idel_F/idel.001", "bone": "bone", "attachment": "idel/idel_F/idel.035" }
],
"skins": {
	"default": {
		"001": {
			"001": { "color": "ffffff78", "y": -3, "scaleX": 0.58, "scaleY": 0.74, "width": 232, "height": 134 }
		},
		"idel/idel_F/idel.001": {
			"idel/idel_F/idel.001": { "width": 1152, "height": 648 },
			"idel/idel_F/idel.003": { "width": 1152, "height": 648 },
			"idel/idel_F/idel.005": { "width": 1152, "height": 648 },
			"idel/idel_F/idel.007": { "width": 1152, "height": 648 },
			"idel/idel_F/idel.009": { "width": 1152, "height": 648 },
			"idel/idel_F/idel.011": { "width": 1152, "height": 648 },
			"idel/idel_F/idel.013": { "width": 1152, "height": 648 },
			"idel/idel_F/idel.015": { "width": 1152, "height": 648 },
			"idel/idel_F/idel.017": { "width": 1152, "height": 648 },
			"idel/idel_F/idel.019": { "width": 1152, "height": 648 },
			"idel/idel_F/idel.021": { "width": 1152, "height": 648 },
			"idel/idel_F/idel.023": { "width": 1152, "height": 648 },
			"idel/idel_F/idel.025": { "width": 1152, "height": 648 },
			"idel/idel_F/idel.027": { "width": 1152, "height": 648 },
			"idel/idel_F/idel.029": { "width": 1152, "height": 648 },
			"idel/idel_F/idel.031": { "width": 1152, "height": 648 },
			"idel/idel_F/idel.033": { "width": 1152, "height": 648 },
			"idel/idel_F/idel.035": { "width": 1152, "height": 648 }
		}
	}
},
"animations": {
	"Idel_F": {
		"slots": {
			"idel/idel_F/idel.001": {
				"attachment": [
					{ "time": 0, "name": "idel/idel_F/idel.035" },
					{ "time": 0.0666, "name": "idel/idel_F/idel.003" },
					{ "time": 0.1333, "name": "idel/idel_F/idel.005" },
					{ "time": 0.2, "name": "idel/idel_F/idel.007" },
					{ "time": 0.2666, "name": "idel/idel_F/idel.009" },
					{ "time": 0.3333, "name": "idel/idel_F/idel.011" },
					{ "time": 0.4, "name": "idel/idel_F/idel.013" },
					{ "time": 0.4666, "name": "idel/idel_F/idel.015" },
					{ "time": 0.5333, "name": "idel/idel_F/idel.017" },
					{ "time": 0.6, "name": "idel/idel_F/idel.019" },
					{ "time": 0.6666, "name": "idel/idel_F/idel.021" },
					{ "time": 0.7333, "name": "idel/idel_F/idel.023" },
					{ "time": 0.8, "name": "idel/idel_F/idel.025" },
					{ "time": 0.8666, "name": "idel/idel_F/idel.027" },
					{ "time": 0.9333, "name": "idel/idel_F/idel.029" },
					{ "time": 1, "name": "idel/idel_F/idel.031" },
					{ "time": 1.0666, "name": "idel/idel_F/idel.033" },
					{ "time": 1.1333, "name": "idel/idel_F/idel.035" }
				]
			}
		},
		"bones": {
			"bone2": {
				"translate": [
					{ "time": 0, "x": 0, "y": 0, "curve": "stepped" },
					{ "time": 0.5666, "x": 0, "y": 0, "curve": "stepped" },
					{ "time": 1.1333, "x": 0, "y": 0 }
				],
				"scale": [
					{ "time": 0, "x": 1, "y": 1 },
					{ "time": 0.5666, "x": 1.059, "y": 1 },
					{ "time": 1.1333, "x": 1, "y": 1 }
				]
			}
		}
	}
}
}