%YAML 1.1
%TAG !u! tag:unity3d.com,2011:
--- !u!221 &22100000
AnimatorOverrideController:
  m_ObjectHideFlags: 0
  m_PrefabParentObject: {fileID: 0}
  m_PrefabInternal: {fileID: 0}
  m_Name: Daodao Override Controller
  m_Controller: {fileID: 9100000, guid: 6351402ff7419a74eb1f03c43e15819e, type: 2}
  m_Clips:
  - m_OriginalClip: {fileID: 7457492, guid: 6351402ff7419a74eb1f03c43e15819e, type: 2}
    m_OverrideClip: {fileID: 7495524, guid: cc91954182c4e204abab1d1778624f9f, type: 2}
  - m_OriginalClip: {fileID: 7465100, guid: 6351402ff7419a74eb1f03c43e15819e, type: 2}
    m_OverrideClip: {fileID: 7461660, guid: cc91954182c4e204abab1d1778624f9f, type: 2}
  - m_OriginalClip: {fileID: 7465138, guid: 6351402ff7419a74eb1f03c43e15819e, type: 2}
    m_OverrideClip: {fileID: 7474172, guid: cc91954182c4e204abab1d1778624f9f, type: 2}
  - m_OriginalClip: {fileID: 7411808, guid: 6351402ff7419a74eb1f03c43e15819e, type: 2}
    m_OverrideClip: {fileID: 7495524, guid: cc91954182c4e204abab1d1778624f9f, type: 2}
  - m_OriginalClip: {fileID: 7479284, guid: 6351402ff7419a74eb1f03c43e15819e, type: 2}
    m_OverrideClip: {fileID: 7483688, guid: cc91954182c4e204abab1d1778624f9f, type: 2}
