{
"skeleton": { "hash": "v4a2jbcKGuXMRV+qrptVYfyQhj8", "spine": "2.1.27", "width": 1152, "height": 648, "images": "" },
"bones": [
	{ "name": "root", "scaleX": -1 },
	{ "name": "bone", "parent": "root" },
	{ "name": "bone2", "parent": "root", "y": -8, "scaleX": 0.619, "scaleY": 0.809 },
	{ "name": "bone3", "parent": "root", "x": 240, "y": 145, "scaleX": -1 }
],
"slots": [
	{ "name": "zd_taolin2", "bone": "bone3" },
	{ "name": "001", "bone": "bone2", "attachment": "001" },
	{ "name": "attack/attack.001", "bone": "bone", "attachment": "attack/attack.001" }
],
"skins": {
	"default": {
		"001": {
			"001": { "color": "ffffff78", "width": 232, "height": 134 }
		},
		"attack/attack.001": {
			"attack/attack.001": { "y": 66, "width": 1152, "height": 648 },
			"attack/attack.003": { "y": 66, "width": 1152, "height": 648 },
			"attack/attack.005": { "y": 66, "width": 1152, "height": 648 },
			"attack/attack.007": { "y": 66, "width": 1152, "height": 648 },
			"attack/attack.009": { "y": 66, "width": 1152, "height": 648 },
			"attack/attack.011": { "y": 66, "width": 1152, "height": 648 },
			"attack/attack.013": { "y": 66, "width": 1152, "height": 648 },
			"attack/attack.015": { "y": 66, "width": 1152, "height": 648 },
			"attack/attack.017": { "y": 66, "width": 1152, "height": 648 },
			"attack/attack.019": { "y": 66, "width": 1152, "height": 648 },
			"attack/attack.021": { "y": 66, "width": 1152, "height": 648 },
			"attack/attack.023": { "y": 66, "width": 1152, "height": 648 },
			"attack/attack.025": { "y": 66, "width": 1152, "height": 648 },
			"attack/attack.027": { "y": 66, "width": 1152, "height": 648 },
			"attack/attack.029": { "y": 66, "width": 1152, "height": 648 },
			"attack/attack.031": { "y": 66, "width": 1152, "height": 648 },
			"attack/attack.033": { "y": 66, "width": 1152, "height": 648 },
			"attack/attack.035": { "y": 66, "width": 1152, "height": 648 },
			"dead/dead.001": { "y": 66, "width": 1152, "height": 648 },
			"dead/dead.003": { "y": 66, "width": 1152, "height": 648 },
			"dead/dead.005": { "y": 66, "width": 1152, "height": 648 },
			"dead/dead.007": { "y": 66, "width": 1152, "height": 648 },
			"dead/dead.009": { "y": 66, "width": 1152, "height": 648 },
			"dead/dead.011": { "y": 66, "width": 1152, "height": 648 },
			"dead/dead.013": { "y": 66, "width": 1152, "height": 648 },
			"dead/dead.015": { "y": 66, "width": 1152, "height": 648 },
			"dead/dead.017": { "y": 66, "width": 1152, "height": 648 },
			"dead/dead.019": { "y": 66, "width": 1152, "height": 648 },
			"dead/dead.021": { "y": 66, "width": 1152, "height": 648 },
			"dead/dead.023": { "y": 66, "width": 1152, "height": 648 },
			"hit/hit.001": { "y": 66, "width": 1152, "height": 648 },
			"hit/hit.003": { "y": 66, "width": 1152, "height": 648 },
			"hit/hit.005": { "y": 66, "width": 1152, "height": 648 },
			"hit/hit.007": { "y": 66, "width": 1152, "height": 648 },
			"hit/hit.009": { "y": 66, "width": 1152, "height": 648 },
			"hit/hit.011": { "y": 66, "width": 1152, "height": 648 },
			"hit/hit.013": { "y": 66, "width": 1152, "height": 648 },
			"hit/hit.015": { "y": 66, "width": 1152, "height": 648 },
			"prepare/prepare.001": { "y": 66, "width": 1152, "height": 648 },
			"prepare/prepare.003": { "y": 66, "width": 1152, "height": 648 },
			"prepare/prepare.005": { "y": 66, "width": 1152, "height": 648 },
			"prepare/prepare.007": { "y": 66, "width": 1152, "height": 648 },
			"prepare/prepare.009": { "y": 66, "width": 1152, "height": 648 },
			"prepare/prepare.011": { "y": 66, "width": 1152, "height": 648 },
			"prepare/prepare.013": { "y": 66, "width": 1152, "height": 648 },
			"prepare/prepare.015": { "y": 66, "width": 1152, "height": 648 },
			"prepare/prepare.017": { "y": 66, "width": 1152, "height": 648 },
			"prepare/prepare.019": { "y": 66, "width": 1152, "height": 648 },
			"prepare/prepare.021": { "y": 66, "width": 1152, "height": 648 },
			"prepare/prepare.023": { "y": 66, "width": 1152, "height": 648 }
		},
		"zd_taolin2": {
			"zd_taolin2": { "width": 1365, "height": 768 }
		}
	}
},
"animations": {
	"Attack": {
		"slots": {
			"attack/attack.001": {
				"attachment": [
					{ "time": 0, "name": "attack/attack.001" },
					{ "time": 0.0666, "name": "attack/attack.003" },
					{ "time": 0.1333, "name": "attack/attack.005" },
					{ "time": 0.2, "name": "attack/attack.007" },
					{ "time": 0.2666, "name": "attack/attack.009" },
					{ "time": 0.3333, "name": "attack/attack.011" },
					{ "time": 0.4, "name": "attack/attack.013" },
					{ "time": 0.4666, "name": "attack/attack.015" },
					{ "time": 0.5333, "name": "attack/attack.017" },
					{ "time": 0.6, "name": "attack/attack.019" },
					{ "time": 0.6666, "name": "attack/attack.021" },
					{ "time": 0.7333, "name": "attack/attack.023" },
					{ "time": 0.8, "name": "attack/attack.025" },
					{ "time": 0.8666, "name": "attack/attack.027" },
					{ "time": 0.9333, "name": "attack/attack.029" },
					{ "time": 1, "name": "attack/attack.031" },
					{ "time": 1.0666, "name": "attack/attack.033" },
					{ "time": 1.1333, "name": "attack/attack.035" }
				]
			}
		},
		"bones": {
			"bone2": {
				"translate": [
					{ "time": 0, "x": 0, "y": 0, "curve": "stepped" },
					{ "time": 0.0333, "x": 0, "y": 0 },
					{ "time": 0.0666, "x": -16.6, "y": 0, "curve": "stepped" },
					{ "time": 0.1, "x": -16.6, "y": 0 },
					{ "time": 0.1333, "x": -36.99, "y": 0, "curve": "stepped" },
					{ "time": 0.1666, "x": -36.99, "y": 0 },
					{ "time": 0.2, "x": -55.11, "y": 0, "curve": "stepped" },
					{ "time": 0.2333, "x": -55.11, "y": 0 },
					{ "time": 0.2666, "x": -65.68, "y": 0, "curve": "stepped" },
					{ "time": 0.3, "x": -65.68, "y": 0 },
					{ "time": 0.3333, "x": -68.7, "y": 0, "curve": "stepped" },
					{ "time": 0.3666, "x": -68.7, "y": 0 },
					{ "time": 0.4, "x": -53.6, "y": 0, "curve": "stepped" },
					{ "time": 0.4333, "x": -53.6, "y": 0 },
					{ "time": 0.4666, "x": 44.54, "y": 0, "curve": "stepped" },
					{ "time": 0.5, "x": 44.54, "y": 0 },
					{ "time": 0.5333, "x": 93.61, "y": 0, "curve": "stepped" },
					{ "time": 0.5666, "x": 93.61, "y": 0, "curve": "stepped" },
					{ "time": 0.7666, "x": 93.61, "y": 0 },
					{ "time": 0.8, "x": 89.84, "y": 0, "curve": "stepped" },
					{ "time": 0.8333, "x": 89.84, "y": 0 },
					{ "time": 0.8666, "x": 78.51, "y": 0, "curve": "stepped" },
					{ "time": 0.9, "x": 78.51, "y": 0 },
					{ "time": 0.9333, "x": 40.01, "y": 0, "curve": "stepped" },
					{ "time": 0.9666, "x": 40.01, "y": 0 },
					{ "time": 1, "x": 2.26, "y": 0, "curve": "stepped" },
					{ "time": 1.0333, "x": 2.26, "y": 0 },
					{ "time": 1.0666, "x": 0, "y": 0 }
				],
				"scale": [
					{ "time": 0, "x": 1, "y": 1 },
					{ "time": 0.0666, "x": 1.128, "y": 1 },
					{ "time": 0.1333, "x": 1.239, "y": 1 },
					{ "time": 0.2, "x": 0.967, "y": 1 },
					{ "time": 0.4666, "x": 1.126, "y": 1 },
					{ "time": 0.5333, "x": 1.126, "y": 1.181 },
					{ "time": 0.6, "x": 1.126, "y": 1.332, "curve": "stepped" },
					{ "time": 0.7, "x": 1.126, "y": 1.332 },
					{ "time": 0.7333, "x": 1.126, "y": 1.111 },
					{ "time": 1.0666, "x": 1, "y": 1 }
				]
			}
		}
	},
	"Dead": {
		"slots": {
			"attack/attack.001": {
				"attachment": [
					{ "time": 0, "name": "dead/dead.001" },
					{ "time": 0.0666, "name": "dead/dead.003" },
					{ "time": 0.1333, "name": "dead/dead.005" },
					{ "time": 0.2, "name": "dead/dead.007" },
					{ "time": 0.2666, "name": "dead/dead.009" },
					{ "time": 0.3333, "name": "dead/dead.011" },
					{ "time": 0.4, "name": "dead/dead.013" },
					{ "time": 0.4666, "name": "dead/dead.015" },
					{ "time": 0.5333, "name": "dead/dead.017" },
					{ "time": 0.6, "name": "dead/dead.019" },
					{ "time": 0.6666, "name": "dead/dead.021" },
					{ "time": 0.7333, "name": "dead/dead.023" }
				]
			}
		},
		"bones": {
			"bone2": {
				"translate": [
					{ "time": 0, "x": 0, "y": 0 },
					{ "time": 0.0666, "x": -5.28, "y": 0 },
					{ "time": 0.1333, "x": -9.05, "y": 0 },
					{ "time": 0.2, "x": -8.3, "y": 0 },
					{ "time": 0.2666, "x": -6.03, "y": 0 },
					{ "time": 0.3333, "x": -2.26, "y": 0 },
					{ "time": 0.4, "x": 8.3, "y": 0 },
					{ "time": 0.4666, "x": 25.67, "y": 0 },
					{ "time": 0.5333, "x": 28.69, "y": 0 }
				],
				"scale": [
					{ "time": 0, "x": 1, "y": 1 },
					{ "time": 0.4, "x": 1.143, "y": 1 },
					{ "time": 0.4666, "x": 1.534, "y": 1 },
					{ "time": 0.5333, "x": 2.043, "y": 1 }
				]
			}
		}
	},
	"Hit": {
		"slots": {
			"attack/attack.001": {
				"attachment": [
					{ "time": 0, "name": "hit/hit.001" },
					{ "time": 0.0666, "name": "hit/hit.003" },
					{ "time": 0.1333, "name": "hit/hit.005" },
					{ "time": 0.2, "name": "hit/hit.007" },
					{ "time": 0.2666, "name": "hit/hit.009" },
					{ "time": 0.3333, "name": "hit/hit.011" },
					{ "time": 0.4, "name": "hit/hit.013" },
					{ "time": 0.4666, "name": "hit/hit.015" }
				]
			}
		},
		"bones": {
			"bone2": {
				"translate": [
					{ "time": 0, "x": 0, "y": 0, "curve": "stepped" },
					{ "time": 0.0333, "x": 0, "y": 0 },
					{ "time": 0.0666, "x": -34.72, "y": 0, "curve": "stepped" },
					{ "time": 0.1, "x": -34.72, "y": 0 },
					{ "time": 0.1333, "x": -40.01, "y": 0, "curve": "stepped" },
					{ "time": 0.1666, "x": -40.01, "y": 0 },
					{ "time": 0.2, "x": -24.91, "y": 0, "curve": "stepped" },
					{ "time": 0.2333, "x": -24.91, "y": 0 },
					{ "time": 0.2666, "x": -1.51, "y": 0, "curve": "stepped" },
					{ "time": 0.3, "x": -1.51, "y": 0 },
					{ "time": 0.3333, "x": -4.53, "y": 0 }
				],
				"scale": [
					{ "time": 0, "x": 1, "y": 1 }
				]
			}
		}
	},
	"Prepare": {
		"slots": {
			"attack/attack.001": {
				"attachment": [
					{ "time": 0, "name": "prepare/prepare.001" },
					{ "time": 0.0666, "name": "prepare/prepare.003" },
					{ "time": 0.1333, "name": "prepare/prepare.005" },
					{ "time": 0.2, "name": "prepare/prepare.007" },
					{ "time": 0.2666, "name": "prepare/prepare.009" },
					{ "time": 0.3333, "name": "prepare/prepare.011" },
					{ "time": 0.4, "name": "prepare/prepare.013" },
					{ "time": 0.4666, "name": "prepare/prepare.015" },
					{ "time": 0.5333, "name": "prepare/prepare.017" },
					{ "time": 0.6, "name": "prepare/prepare.019" },
					{ "time": 0.6666, "name": "prepare/prepare.021" },
					{ "time": 0.7333, "name": "prepare/prepare.023" }
				]
			}
		},
		"bones": {
			"bone2": {
				"translate": [
					{ "time": 0, "x": 0, "y": 0, "curve": "stepped" },
					{ "time": 0.7333, "x": 0, "y": 0 }
				],
				"scale": [
					{ "time": 0, "x": 1, "y": 1 },
					{ "time": 0.4, "x": 0.973, "y": 1 },
					{ "time": 0.7333, "x": 1, "y": 1 }
				]
			}
		}
	}
}
}